<?xml version="1.0" encoding="utf-8"?>
<COLLADA xmlns="http://www.collada.org/2005/11/COLLADASchema" version="1.4.1">
  <asset><contributor><author></author><authoring_tool></authoring_tool><comments></comments></contributor><created></created><keywords></keywords><modified></modified><revision></revision><subject></subject><title></title><unit meter="1.000000" name="centimeter"></unit><up_axis>Y_UP</up_axis></asset>
  <library_geometries>
    <geometry id="QuickBallCapsule-lib" name="QuickBallCapsuleMesh">
      <mesh>
        <source id="QuickBallCapsule-POSITION">
          <float_array id="QuickBallCapsule-POSITION-array" count="348">
2.884867 0.000000 1.093809
2.710888 0.986681 1.093809
2.209937 1.854354 1.093809
1.442435 2.498365 1.093809
0.500955 2.841036 1.093809
-0.500948 2.841035 1.093809
-1.442428 2.498364 1.093809
-2.209929 1.854354 1.093809
-2.710880 0.986682 1.093809
-2.884859 0.000001 1.093809
-2.710880 -0.986680 1.093809
-2.209929 -1.854353 1.093809
-1.442429 -2.498364 1.093809
-0.500949 -2.841035 1.093809
0.500954 -2.841035 1.093809
1.442434 -2.498365 1.093809
2.209936 -1.854355 1.093809
2.710887 -0.986683 1.093809
1.748221 0.000000 1.769353
1.642790 0.597926 1.769353
1.339216 1.123733 1.769353
0.874112 1.514001 1.769353
0.303578 1.721658 1.769353
-0.303571 1.721658 1.769353
-0.874105 1.514001 1.769353
-1.339209 1.123733 1.769353
-1.642783 0.597926 1.769353
-1.748213 0.000000 1.769353
-1.642783 -0.597925 1.769353
-1.339209 -1.123732 1.769353
-0.874105 -1.514000 1.769353
-0.303572 -1.721658 1.769353
0.303577 -1.721658 1.769353
0.874111 -1.514001 1.769353
1.339215 -1.123733 1.769353
1.642790 -0.597927 1.769353
0.000004 0.000000 2.115067
-0.083252 0.004059 1.046506
2.121253 1.276831 1.046506
2.121253 -1.268713 1.046506
-0.083252 0.004059 2.164993
2.121253 1.276831 2.164993
2.121253 -1.268713 2.164993
-2.716194 0.004059 1.046506
-0.511689 1.276831 1.046506
-0.511690 -1.268713 1.046506
-2.716194 0.004059 2.164993
-0.511689 1.276831 2.164993
-0.511690 -1.268713 2.164993
-2.884867 0.000000 -1.093825
-2.710888 -0.986681 -1.093825
-1.642790 -0.597925 -1.769369
-1.748220 0.000000 -1.769369
-2.209938 -1.854354 -1.093826
-1.339216 -1.123732 -1.769370
-1.442436 -2.498364 -1.093826
-0.874112 -1.514000 -1.769370
-0.500955 -2.841035 -1.093826
-0.303578 -1.721658 -1.769370
0.500948 -2.841035 -1.093826
0.303571 -1.721658 -1.769370
1.442428 -2.498364 -1.093826
0.874105 -1.514001 -1.769370
2.209929 -1.854355 -1.093826
1.339209 -1.123733 -1.769370
2.710880 -0.986682 -1.093825
1.642783 -0.597926 -1.769369
2.884859 -0.000001 -1.093825
1.748213 -0.000000 -1.769369
2.710880 0.986680 -1.093824
1.642783 0.597925 -1.769369
2.209929 1.854353 -1.093824
1.339209 1.123732 -1.769369
1.442429 2.498363 -1.093824
0.874105 1.514000 -1.769368
0.500949 2.841035 -1.093823
0.303572 1.721658 -1.769368
-0.500954 2.841036 -1.093823
-0.303577 1.721658 -1.769368
-1.442433 2.498366 -1.093824
-0.874111 1.514001 -1.769368
-2.209935 1.854356 -1.093824
-1.339215 1.123733 -1.769369
-2.710888 0.986684 -1.093824
-1.642790 0.597927 -1.769369
-0.000004 0.000000 -2.115084
2.856087 0.004059 -1.046523
2.856087 0.004059 -2.165009
0.651582 -1.268712 -2.165010
0.651582 -1.268713 -1.046523
0.651582 1.276831 -2.165009
0.651582 1.276831 -1.046522
0.223145 0.004059 -1.046523
0.223145 0.004059 -2.165009
-1.981360 -1.268712 -2.165010
-1.981360 -1.268713 -1.046523
-1.981359 1.276831 -2.165009
-1.981359 1.276831 -1.046522
-0.668091 -3.788923 -0.000009
0.668089 -3.788924 -0.000009
1.923686 -3.331924 -0.000009
2.947259 -2.473045 -0.000009
-3.615347 1.315881 -0.000008
-3.615349 -1.315879 -0.000008
-3.847374 0.000001 -0.000008
-2.947260 -2.473044 -0.000009
-1.923688 -3.331923 -0.000009
3.615348 -1.315881 -0.000008
3.847374 -0.000001 -0.000008
3.615349 1.315879 -0.000008
2.947260 2.473044 -0.000008
1.923688 3.331923 -0.000007
0.668091 3.788923 -0.000007
-0.668089 3.788924 -0.000007
-1.923687 3.331924 -0.000007
-2.947259 2.473045 -0.000008
</float_array>
          <technique_common>
            <accessor source="#QuickBallCapsule-POSITION-array" count="116" stride="3">
              <param name="X" type="float"/>
              <param name="Y" type="float"/>
              <param name="Z" type="float"/>
            </accessor>
          </technique_common>
        </source>
        <source id="QuickBallCapsule-Normal0">
          <float_array id="QuickBallCapsule-Normal0-array" count="1872">
0.609515 0.221845 0.761102
0.221845 0.761102 0.351303
0.927490 0.373849 -0.000000
0.221845 0.761102 0.351303
0.609515 0.221845 0.761102
0.648632 -0.000000 0.761102
0.416932 0.761102 0.286385
0.927490 0.351303 0.127864
0.496881 0.416932 0.761102
0.416932 0.761102 0.286385
0.496881 0.416932 0.761102
0.561731 0.761102 0.186924
0.927490 0.186924 0.323762
0.324316 0.561731 0.761102
0.638777 0.761103 0.064918
0.324316 0.561731 0.761102
0.927490 0.186924 0.323762
0.927490 0.286385 0.240305
0.638777 0.761103 -0.064918
-0.112634 0.638777 0.761103
0.112634 0.638777 0.761103
-0.112634 0.638777 0.761103
0.638777 0.761103 -0.064918
0.927490 0.064918 0.368169
-0.324315 0.561731 0.761103
0.561731 0.761103 -0.186924
0.927490 -0.064918 0.368169
0.561731 0.761103 -0.186924
-0.324315 0.561731 0.761103
0.416932 0.761103 -0.286385
0.221845 0.761103 -0.351303
0.927490 -0.186924 0.323762
-0.496880 0.416932 0.761103
0.927490 -0.186924 0.323762
0.221845 0.761103 -0.351303
0.927490 -0.286385 0.240305
-0.648631 0.000000 0.761103
0.000000 0.761103 -0.373848
0.927490 -0.351303 0.127864
0.000000 0.761103 -0.373848
-0.648631 0.000000 0.761103
-0.609514 0.221845 0.761103
0.927490 -0.373848 0.000000
-0.416932 0.761103 -0.286385
-0.221845 0.761103 -0.351303
-0.416932 0.761103 -0.286385
0.927490 -0.373848 0.000000
-0.609514 -0.221845 0.761103
0.927490 -0.286385 -0.240305
-0.496880 -0.416932 0.761103
-0.561731 0.761103 -0.186924
-0.496880 -0.416932 0.761103
0.927490 -0.286385 -0.240305
0.927490 -0.351303 -0.127864
-0.638777 0.761103 -0.064918
0.927490 -0.186924 -0.323762
-0.324316 -0.561731 0.761103
-0.112634 -0.638777 0.761103
-0.324316 -0.561731 0.761103
0.927490 -0.186924 -0.323762
0.112633 -0.638778 0.761102
-0.638778 0.761102 0.064918
0.927490 -0.064918 -0.368169
-0.638778 0.761102 0.064918
0.112633 -0.638778 0.761102
-0.561732 0.761102 0.186924
-0.416933 0.761102 0.286384
0.927490 0.064918 -0.368169
0.324316 -0.561732 0.761102
0.927490 0.064918 -0.368169
-0.416933 0.761102 0.286384
0.927490 0.186924 -0.323762
0.609515 -0.221846 0.761102
-0.221846 0.761102 0.351303
0.927490 0.286384 -0.240305
-0.221846 0.761102 0.351303
0.609515 -0.221846 0.761102
0.496881 -0.416933 0.761102
0.927490 0.351303 -0.127864
0.127864 0.927490 0.000000
-0.000000 0.761102 0.373849
0.127864 0.927490 0.000000
0.927490 0.351303 -0.127864
0.373849 -0.000000 0.927490
0.927490 0.186924 0.323762
1.000000 0.351303 0.127864
-0.000000 1.000000 0.286385
1.000000 0.351303 0.127864
0.286385 0.240305 0.927490
-0.000000 1.000000 0.286385
0.323762 0.927490 0.064918
0.927490 0.000000 -0.000000
0.000000 -0.000000 1.000000
0.000000 -0.000000 1.000000
0.927490 0.000000 -0.000000
0.064918 0.368169 0.927490
1.000000 -0.064918 0.368169
-0.000000 1.000000 -0.186924
0.368169 0.927490 0.000000
-0.000000 1.000000 -0.186924
1.000000 -0.064918 0.368169
-0.186924 0.323762 0.927490
0.240305 0.927490 -0.351303
0.927490 -0.286385 0.240305
0.000000 -0.000000 1.000000
0.927490 -0.286385 0.240305
0.240305 0.927490 -0.351303
0.927490 0.000000 -0.000000
-0.351303 0.127864 0.927490
0.000000 0.927490 0.000000
1.000000 -0.373848 0.000000
-0.351303 -0.127864 0.927490
-0.000000 1.000000 -0.351303
0.927490 -0.286385 -0.240305
0.000000 -0.000000 1.000000
-0.240305 0.927490 -0.186924
0.927490 0.000000 -0.000000
-0.186924 -0.323762 0.927490
-0.368169 0.927490 0.000000
1.000000 -0.064918 -0.368169
0.064918 -0.368169 0.927490
-0.000000 1.000000 0.064918
0.927490 0.186924 -0.323762
0.000000 -0.000000 1.000000
-0.323762 0.927490 0.286384
0.927490 0.000000 -0.000000
0.286384 -0.240305 0.927490
-0.127864 0.927490 0.000000
1.000000 0.351303 -0.127864
0.373849 -0.000000 0.927490
-0.000000 1.000000 -0.500000
0.000000 -0.500000 0.866025
-0.500000 0.866025 0.000000
0.866025 0.000000 1.000000
0.000000 1.000000 0.000000
1.000000 0.000000 0.000000
0.000000 0.000000 -0.500000
0.000000 -0.500000 -0.866025
-0.500000 -0.866025 0.000000
-0.866025 0.000000 0.000000
1.000000 0.000000 0.000000
0.000000 0.000000 1.000000
0.866025 0.000000 -0.500000
0.000000 -0.500000 0.866025
-0.500000 0.866025 0.000000
-0.000000 0.000000 1.000000
0.000000 1.000000 -0.000000
1.000000 -0.000000 0.000000
-0.866025 0.000000 -0.500000
0.000000 -0.500000 -0.866025
-0.500000 -0.866025 0.000000
0.000000 1.000000 0.000000
1.000000 0.000000 0.000000
0.609515 0.221845 0.761102
-0.000000 0.761102 0.750731
0.660608 0.705456 0.256765
0.496881 0.416932 0.761102
0.221845 0.761102 0.705456
0.660608 0.575093 0.482560
0.324316 0.561731 0.761102
0.416932 0.761102 0.575093
0.660609 0.375365 0.650151
0.660609 0.130363 0.739324
0.112634 0.638777 0.761103
0.561731 0.761102 0.375365
0.112634 0.638777 0.761103
0.660609 0.130363 0.739324
-0.112634 0.638777 0.761103
-0.324315 0.561731 0.761103
0.638777 0.761103 0.130363
0.660609 -0.130363 0.739324
0.638777 0.761103 0.130363
-0.324315 0.561731 0.761103
0.638777 0.761103 -0.130363
0.561731 0.761103 -0.375364
0.660610 -0.375364 0.650150
-0.496880 0.416932 0.761103
0.660610 -0.375364 0.650150
0.561731 0.761103 -0.375364
0.660611 -0.575092 0.482559
-0.609514 0.221845 0.761103
0.416932 0.761103 -0.575092
0.660611 -0.705454 0.256764
0.660611 -0.750729 0.000000
-0.648631 0.000000 0.761103
0.221845 0.761103 -0.705454
-0.648631 0.000000 0.761103
0.660611 -0.750729 0.000000
-0.609514 -0.221845 0.761103
-0.496880 -0.416932 0.761103
0.000000 0.761103 -0.750729
0.660611 -0.705454 -0.256764
0.000000 0.761103 -0.750729
-0.496880 -0.416932 0.761103
-0.221845 0.761103 -0.705454
-0.416932 0.761103 -0.575092
0.660611 -0.575092 -0.482559
-0.324316 -0.561731 0.761103
0.660611 -0.575092 -0.482559
-0.416932 0.761103 -0.575092
0.660611 -0.375365 -0.650150
-0.112634 -0.638777 0.761103
-0.561731 0.761103 -0.375365
0.660610 -0.130363 -0.739324
-0.638777 0.761103 -0.130363
0.660609 0.130362 -0.739325
0.112633 -0.638778 0.761102
0.112633 -0.638778 0.761102
0.660609 0.130362 -0.739325
0.324316 -0.561732 0.761102
0.660609 0.375365 -0.650152
0.496881 -0.416933 0.761102
-0.638778 0.761102 0.130362
-0.638778 0.761102 0.130362
0.496881 -0.416933 0.761102
-0.561732 0.761102 0.375365
-0.416933 0.761102 0.575093
0.660609 0.575093 -0.482561
0.609515 -0.221846 0.761102
0.660609 0.575093 -0.482561
-0.416933 0.761102 0.575093
0.660608 0.705456 -0.256766
-0.221846 0.761102 0.705456
-0.648632 0.000000 -0.761102
0.648632 -0.000000 0.761102
-0.648632 0.000000 -0.761102
-0.221846 0.761102 0.705456
0.660608 0.750731 -0.000000
-0.927490 -0.609515 -0.221845
-0.609515 -0.221845 -0.761102
0.000000 -0.927490 -0.351303
0.000000 -0.927490 -0.351303
-0.609515 -0.221845 -0.761102
-0.127863 -0.927490 -0.286385
-0.496881 -0.416932 -0.761102
-0.240305 -0.927490 -0.186924
-0.927490 -0.496881 -0.416932
-0.927490 -0.496881 -0.416932
-0.240305 -0.927490 -0.186924
-0.927490 -0.324316 -0.561732
-0.324316 -0.561732 -0.761102
-0.323762 -0.927490 -0.064918
-0.927490 -0.112634 -0.638777
-0.324316 -0.561732 -0.761102
-0.927490 -0.112634 -0.638777
-0.112634 -0.638777 -0.761102
0.112634 -0.638777 -0.761103
-0.368169 -0.927490 0.064918
-0.927490 0.112634 -0.638777
-0.368169 -0.927490 0.064918
0.112634 -0.638777 -0.761103
-0.368169 -0.927490 0.186924
0.324315 -0.561731 -0.761103
-0.927490 0.496880 -0.416932
-0.927490 0.324315 -0.561731
-0.927490 0.496880 -0.416932
0.324315 -0.561731 -0.761103
-0.323762 -0.927490 0.286385
-0.240305 -0.927490 0.351303
-0.927490 0.609514 -0.221845
0.496880 -0.416932 -0.761103
0.496880 -0.416932 -0.761103
-0.927490 0.609514 -0.221845
0.609514 -0.221845 -0.761103
0.000001 -0.927490 0.351303
-0.927490 0.648631 0.000000
0.648631 0.000000 -0.761103
-0.927490 0.648631 0.000000
0.000001 -0.927490 0.351303
-0.127863 -0.927490 0.373848
-0.927490 0.496880 0.416932
0.609513 0.221845 -0.761103
0.127864 -0.927490 0.286385
0.609513 0.221845 -0.761103
-0.927490 0.496880 0.416932
-0.927490 0.609513 0.221845
0.240306 -0.927490 0.186925
0.324316 0.561731 -0.761103
0.496880 0.416932 -0.761103
0.324316 0.561731 -0.761103
0.240306 -0.927490 0.186925
-0.927490 0.324316 0.561731
-0.927490 0.112634 0.638777
0.368169 -0.927490 -0.064918
0.323763 -0.927490 0.064918
0.368169 -0.927490 -0.064918
-0.927490 0.112634 0.638777
0.112634 0.638777 -0.761103
-0.112633 0.638778 -0.761102
0.368169 -0.927490 -0.186924
-0.927490 -0.112633 0.638778
-0.927490 -0.112633 0.638778
0.368169 -0.927490 -0.186924
-0.927490 -0.324316 0.561732
-0.496881 0.416933 -0.761102
0.323763 -0.927490 -0.286384
-0.927490 -0.496881 0.416933
0.323763 -0.927490 -0.286384
-0.496881 0.416933 -0.761102
-0.324316 0.561732 -0.761102
0.127864 -0.927490 -0.373848
-0.927490 -0.609515 0.221846
-0.609515 0.221846 -0.761102
-0.927490 -0.609515 0.221846
0.127864 -0.927490 -0.373848
0.240306 -0.927490 -0.351303
-0.373848 0.000000 -0.927490
-0.927490 -0.351303 -0.127863
-0.927490 -0.648632 0.000000
-0.927490 -0.351303 -0.127863
-0.373848 0.000000 -0.927490
0.000001 -1.000000 -0.351303
-0.186924 -0.323762 -0.927490
-0.240305 -0.927490 -0.286385
-0.927490 -0.000000 0.000001
-0.240305 -0.927490 -0.286385
-0.186924 -0.323762 -0.927490
-0.000000 0.000001 -1.000000
-0.323762 -0.927490 -0.000000
-0.064918 -0.368169 -0.927490
0.000001 -1.000000 0.064918
-0.064918 -0.368169 -0.927490
-0.323762 -0.927490 -0.000000
-1.000000 -0.064918 -0.368169
-0.000000 0.000001 -1.000000
-0.927490 -0.000000 0.000001
-0.927490 0.064918 -0.368169
-0.927490 -0.000000 0.000001
-0.000000 0.000001 -1.000000
-0.323762 -0.927490 0.186924
-0.240305 -0.927490 -0.000000
0.351303 -0.127863 -0.927490
0.286385 -0.240305 -0.927490
0.351303 -0.127863 -0.927490
-0.240305 -0.927490 -0.000000
-1.000000 0.351303 -0.127863
0.127864 -0.927490 0.351303
0.000001 -1.000000 0.373848
-0.000000 0.000001 -1.000000
0.000001 -1.000000 0.373848
-0.927490 0.373848 0.000001
-0.000000 0.000001 -1.000000
0.240306 -0.927490 -0.000000
-1.000000 0.186925 0.323763
-0.927490 -0.000000 0.000001
0.240306 -0.927490 -0.000000
-0.927490 -0.000000 0.000001
0.286385 0.240306 -0.927490
-0.000000 0.000001 -1.000000
0.000001 -1.000000 0.064918
-0.927490 0.064918 0.368169
0.000001 -1.000000 0.064918
-0.000000 0.000001 -1.000000
0.186925 0.323763 -0.927490
0.323763 -0.927490 -0.000000
-0.927490 -0.000000 0.000001
-0.186924 0.323763 -0.927490
-0.927490 -0.000000 0.000001
0.323763 -0.927490 -0.000000
0.368169 -0.927490 -0.064918
-0.286384 0.240306 -0.927490
-0.927490 -0.351303 0.127864
-1.000000 -0.286384 0.240306
-0.927490 -0.351303 0.127864
-0.286384 0.240306 -0.927490
0.000001 -1.000000 -0.351303
-0.000000 0.500000 -0.866025
-0.000000 0.000001 -1.000000
0.000000 -0.927490 0.500000
-0.000000 0.000001 -1.000000
-0.000000 0.500000 -0.866025
0.500000 -0.866026 -0.000000
0.000000 0.000000 0.500000
0.000000 -1.000000 0.000000
-1.000000 0.000000 0.000000
0.000000 -1.000000 0.000000
0.000000 0.000000 0.500000
-0.866025 -0.000000 -1.000000
-1.000000 0.000000 0.000001
0.500000 0.866025 0.000000
0.866025 0.000000 0.000000
0.500000 0.866025 0.000000
-1.000000 0.000000 0.000001
0.000000 0.500000 0.866025
0.000000 0.000001 -1.000000
-0.000000 0.500000 -0.866026
0.500000 -0.866025 -0.000000
-0.000000 0.500000 -0.866026
0.000000 0.000001 -1.000000
-0.866026 -0.000000 0.500000
0.866025 0.000000 0.500000
0.000000 -1.000000 0.000000
-1.000000 0.000000 0.000000
0.000000 -1.000000 0.000000
0.866025 0.000000 0.500000
0.000000 0.000000 -1.000000
0.000001 -1.000000 0.000000
0.000000 0.500000 0.866025
0.500000 0.866025 0.000000
0.000000 0.500000 0.866025
0.000001 -1.000000 0.000000
-1.000000 0.000000 0.000001
0.000000 -0.761102 -0.609515
-0.705457 -0.256765 -0.660608
-0.750731 0.000000 -0.660608
-0.705457 -0.256765 -0.660608
0.000000 -0.761102 -0.609515
-0.761102 -0.705457 -0.256765
-0.416932 -0.761102 -0.324316
-0.221845 -0.761102 -0.496881
-0.575094 -0.482560 -0.660608
-0.221845 -0.761102 -0.496881
-0.761102 -0.575094 -0.482560
-0.575094 -0.482560 -0.660608
-0.761102 -0.130363 -0.739325
-0.375365 -0.650152 -0.660609
-0.561732 -0.761102 -0.112634
-0.375365 -0.650152 -0.660609
-0.761102 -0.130363 -0.739325
-0.761102 -0.375365 -0.650152
-0.130363 -0.739325 -0.660609
-0.638777 -0.761102 0.112634
-0.761103 0.130363 -0.739324
0.130363 -0.739324 -0.660610
-0.638777 -0.761103 0.324315
-0.761103 0.375365 -0.650151
0.375365 -0.650151 -0.660610
-0.561731 -0.761103 0.496880
-0.761103 0.575092 -0.482559
0.575092 -0.482559 -0.660610
-0.416932 -0.761103 0.609514
-0.761103 0.705454 -0.256764
0.705454 -0.256764 -0.660611
-0.221845 -0.761103 0.648631
-0.761103 0.750728 0.000000
0.750728 0.000000 -0.660611
0.000000 -0.761103 0.609513
-0.761103 0.705454 0.256764
0.705454 0.256764 -0.660611
0.221845 -0.761103 0.496880
-0.761103 0.575092 0.482559
0.575092 0.482559 -0.660611
0.416932 -0.761103 0.324316
-0.761103 0.375365 0.650150
0.375365 0.650150 -0.660610
0.561731 -0.761103 0.112634
-0.761103 0.130363 0.739324
0.130363 0.739324 -0.660610
0.638777 -0.761103 -0.112633
-0.761102 -0.130362 0.739325
-0.130362 0.739325 -0.660609
0.638778 -0.761102 -0.324316
-0.761102 -0.375365 0.650152
-0.375365 0.650152 -0.660609
0.561732 -0.761102 -0.496881
-0.761102 -0.575093 0.482561
-0.575093 0.482561 -0.660608
0.416933 -0.761102 -0.609515
-0.761102 -0.705456 0.256766
-0.705456 0.256766 -0.660608
0.221846 -0.761102 -0.648632
-0.761102 -0.750731 0.000000
0.000000 0.000000 0.000000
0.000000 0.000000 0.000000
0.000000 0.000000 0.000000
0.000000 0.000000 0.000000
0.000000 0.000000 0.000000
0.000000 0.000000 0.000000
0.000000 0.000000 0.000000
0.000000 0.000000 0.000000
0.000000 0.000000 0.000000
0.000000 0.000000 0.000000
0.000000 0.000000 0.000000
0.000000 0.000000 0.000000
0.000000 0.000000 0.000000
0.000000 0.000000 0.000000
0.000000 0.000000 0.000000
0.000000 0.000000 0.000000
0.000000 0.000000 0.000000
0.000000 0.000000 0.000000
0.000000 0.000000 0.000000
0.000000 0.000000 0.000000
0.000000 0.000000 0.000000
0.000000 0.000000 0.000000
0.000000 0.000000 0.000000
0.000000 0.000000 0.000000
0.000000 0.000000 0.000000
0.000000 0.000000 0.000000
0.000000 0.000000 0.000000
0.000000 0.000000 0.000000
0.000000 0.000000 0.000000
0.000000 0.000000 0.000000
0.000000 0.000000 0.000000
0.000000 0.000000 0.000000
0.000000 0.000000 0.000000
0.000000 0.000000 0.000000
0.000000 0.000000 0.000000
0.000000 0.000000 0.000000
0.000000 0.000000 0.000000
0.000000 0.000000 0.000000
0.000000 0.000000 0.000000
0.000000 0.000000 0.000000
0.000000 0.000000 0.000000
0.000000 0.000000 0.000000
0.000000 0.000000 0.000000
0.000000 0.000000 0.000000
0.000000 0.000000 0.000000
0.000000 0.000000 0.000000
0.000000 0.000000 0.000000
0.000000 0.000000 0.000000
0.000000 0.000000 0.000000
0.000000 0.000000 0.000000
0.000000 0.000000 0.000000
0.000000 0.000000 0.000000
0.000000 0.000000 0.000000
0.000000 0.000000 0.000000
0.000000 0.000000 0.000000
0.000000 0.000000 0.000000
0.000000 0.000000 0.000000
0.000000 0.000000 0.000000
0.000000 0.000000 0.000000
0.000000 0.000000 0.000000
0.000000 0.000000 0.000000
0.000000 0.000000 0.000000
0.000000 0.000000 0.000000
0.000000 0.000000 0.000000
0.000000 0.000000 0.000000
0.000000 0.000000 0.000000
0.000000 0.000000 0.000000
0.000000 0.000000 0.000000
0.000000 0.000000 0.000000
0.000000 0.000000 0.000000
0.000000 0.000000 0.000000
0.000000 0.000000 0.000000
0.000000 0.000000 0.000000
0.000000 0.000000 0.000000
0.000000 0.000000 0.000000
0.000000 0.000000 0.000000
0.000000 0.000000 0.000000
0.000000 0.000000 0.000000
0.000000 0.000000 0.000000
0.000000 0.000000 0.000000
0.000000 0.000000 0.000000
0.000000 0.000000 0.000000
0.000000 0.000000 0.000000
0.000000 0.000000 0.000000
0.000000 0.000000 0.000000
0.000000 0.000000 0.000000
0.000000 0.000000 0.000000
0.000000 0.000000 0.000000
0.000000 0.000000 0.000000
0.000000 0.000000 0.000000
0.000000 0.000000 0.000000
0.000000 0.000000 0.000000
0.000000 0.000000 0.000000
0.000000 0.000000 0.000000
0.000000 0.000000 0.000000
0.000000 0.000000 0.000000
0.000000 0.000000 0.000000
0.000000 0.000000 0.000000
0.000000 0.000000 0.000000
0.000000 0.000000 0.000000
0.000000 0.000000 0.000000
0.000000 0.000000 0.000000
0.000000 0.000000 0.000000
0.000000 0.000000 0.000000
0.000000 0.000000 0.000000
0.000000 0.000000 0.000000
0.000000 0.000000 0.000000
0.000000 0.000000 0.000000
0.000000 0.000000 0.000000
0.000000 0.000000 0.000000
0.000000 0.000000 0.000000
0.000000 0.000000 0.000000
0.000000 0.000000 0.000000
0.000000 0.000000 0.000000
0.000000 0.000000 0.000000
0.000000 0.000000 0.000000
0.000000 0.000000 0.000000
0.000000 0.000000 0.000000
0.000000 0.000000 0.000000
0.000000 0.000000 0.000000
0.000000 0.000000 0.000000
0.000000 0.000000 0.000000
0.000000 0.000000 0.000000
0.000000 0.000000 0.000000
0.000000 0.000000 0.000000
0.000000 0.000000 0.000000
0.000000 0.000000 0.000000
0.000000 0.000000 0.000000
0.000000 0.000000 0.000000
0.000000 0.000000 0.000000
0.000000 0.000000 0.000000
0.000000 0.000000 0.000000
0.000000 0.000000 0.000000
0.000000 0.000000 0.000000
0.000000 0.000000 0.000000
0.000000 0.000000 0.000000
0.000000 0.000000 0.000000
0.000000 0.000000 0.000000
0.000000 0.000000 0.000000
0.000000 0.000000 0.000000
0.000000 0.000000 0.000000
0.000000 0.000000 0.000000
0.000000 0.000000 0.000000
0.000000 0.000000 0.000000
0.000000 0.000000 0.000000
0.000000 0.000000 0.000000
0.000000 0.000000 0.000000
0.000000 0.000000 0.000000
0.000000 0.000000 0.000000
0.000000 0.000000 0.000000
0.000000 0.000000 0.000000
0.000000 0.000000 0.000000
0.000000 0.000000 0.000000
0.000000 0.000000 0.000000
0.000000 0.000000 0.000000
0.000000 0.000000 0.000000
0.000000 0.000000 0.000000
0.000000 0.000000 0.000000
0.000000 0.000000 0.000000
0.000000 0.000000 0.000000
0.000000 0.000000 0.000000
0.000000 0.000000 0.000000
</float_array>
          <technique_common>
            <accessor source="#QuickBallCapsule-Normal0-array" count="624" stride="3">
              <param name="X" type="float"/>
              <param name="Y" type="float"/>
              <param name="Z" type="float"/>
            </accessor>
          </technique_common>
        </source>
        <source id="QuickBallCapsule-UV0">
          <float_array id="QuickBallCapsule-UV0-array" count="456">
0.170677 0.921952
0.170677 0.903244
0.213255 0.903244
0.213255 0.921952
0.775315 0.023482
0.778598 0.044964
0.760107 0.044964
0.750656 0.023482
0.140034 0.862912
0.450749 0.052147
0.142295 0.624583
0.145577 0.646065
0.491719 0.617841
0.491744 0.593258
0.140009 0.887495
0.123214 0.889417
0.127087 0.646065
0.736020 0.486342
0.736045 0.461759
0.752840 0.459836
0.508539 0.591336
0.447678 0.069563
0.428825 0.062701
0.430686 0.052147
0.438836 0.084879
0.423467 0.071982
0.583582 0.763090
0.559372 0.760294
0.117636 0.865475
0.425289 0.096246
0.415257 0.078871
0.408670 0.102295
0.405187 0.082536
0.390986 0.102295
0.394470 0.082536
0.374368 0.096246
0.384399 0.078871
0.360820 0.084879
0.376190 0.071982
0.351978 0.069563
0.370831 0.062701
0.348907 0.052147
0.368970 0.052147
0.351978 0.034731
0.370831 0.041593
0.360820 0.019416
0.376190 0.032312
0.374368 0.008048
0.384399 0.025423
0.390986 0.002000
0.394470 0.021758
0.408670 0.002000
0.405187 0.021758
0.425289 0.008048
0.415257 0.025423
0.060073 0.769664
0.926710 0.420742
0.060073 0.750956
0.102650 0.750956
0.926710 0.402034
0.102650 0.769664
0.291344 0.798142
0.291344 0.779433
0.745663 0.210169
0.724375 0.173295
0.766952 0.173295
0.945536 0.321397
0.969288 0.402034
0.945536 0.302689
0.988114 0.302689
0.969288 0.420742
0.988114 0.321397
0.175708 0.799802
0.175708 0.781094
0.810783 0.152962
0.789494 0.116089
0.832072 0.116089
0.333921 0.779433
0.333921 0.798142
0.218286 0.781094
0.218286 0.799802
0.619138 0.365473
0.619138 0.386681
0.600008 0.386681
0.438836 0.019416
0.161655 0.865520
0.399933 0.530690
0.156221 0.889451
0.833589 0.529228
0.117636 0.624583
0.168537 0.624583
0.165254 0.646065
0.758418 0.483778
0.714398 0.483733
0.719833 0.459803
0.593625 0.365473
0.644651 0.365473
0.638268 0.386681
0.514117 0.615277
0.470098 0.615232
0.475532 0.591302
0.801557 0.023482
0.798275 0.044964
0.826217 0.023482
0.816765 0.044964
0.559372 0.743536
0.583582 0.740740
0.805506 0.524935
0.117636 0.052147
0.491724 0.631634
0.137699 0.052147
0.139560 0.062701
0.514118 0.634239
0.120707 0.069563
0.508495 0.658170
0.144918 0.071983
0.129549 0.084879
0.153128 0.078871
0.143096 0.096246
0.163198 0.082537
0.159714 0.102295
0.173915 0.082537
0.023626 0.873683
0.177399 0.102295
0.046020 0.876288
0.183986 0.078871
0.040397 0.900219
0.194017 0.096246
0.192195 0.071983
0.207564 0.084879
0.197554 0.062701
0.216407 0.069563
0.370533 0.739053
0.199415 0.052147
0.392927 0.741658
0.219478 0.052148
0.387304 0.765589
0.197554 0.041593
0.193196 0.624583
0.216407 0.034731
0.183744 0.646065
0.192195 0.032313
0.127087 0.603101
0.145578 0.603101
0.207564 0.019416
0.183986 0.025424
0.597945 0.726815
0.597945 0.704466
0.194017 0.008049
0.173915 0.021758
0.491704 0.656217
0.177399 0.002000
0.163198 0.021758
0.159714 0.002000
0.153128 0.025424
0.143096 0.008049
0.060072 0.791896
0.102650 0.791896
0.102650 0.810604
0.060072 0.810604
0.055041 0.914013
0.097619 0.914013
0.097619 0.932721
0.055041 0.932721
0.514489 0.671964
0.557067 0.671964
0.557067 0.690672
0.514489 0.690672
0.254560 0.687856
0.275849 0.724729
0.233271 0.724729
0.002000 0.956278
0.044578 0.956278
0.044578 0.974986
0.002000 0.974986
0.527911 0.631634
0.570489 0.631634
0.570489 0.650343
0.527911 0.650343
0.175449 0.862912
0.218027 0.862912
0.218027 0.881620
0.175449 0.881620
0.435015 0.509483
0.456304 0.546356
0.413727 0.546356
0.393550 0.551898
0.374420 0.551898
0.374420 0.530690
0.760107 0.002000
0.778598 0.002000
0.798274 0.002000
0.023606 0.898266
0.002000 0.876251
0.470098 0.634202
0.475488 0.658143
0.619138 0.344266
0.629251 0.651374
0.632417 0.631634
0.007390 0.900192
0.355290 0.551898
0.348907 0.530690
0.355290 0.509483
0.370513 0.763636
0.348907 0.741621
0.354297 0.765562
0.165254 0.603101
0.183745 0.603101
0.622155 0.707261
0.622155 0.724019
0.423467 0.032312
0.447678 0.034731
0.428825 0.041593
0.399828 0.052147
0.374420 0.509483
0.393550 0.509483
0.638268 0.344266
0.600008 0.344266
0.816765 0.002000
0.144918 0.032313
0.129549 0.019416
0.139560 0.041593
0.120707 0.034731
0.168557 0.052147
0.803159 0.510130
0.830459 0.509483
0.659715 0.632332
0.657342 0.647133
</float_array>
          <technique_common>
            <accessor source="#QuickBallCapsule-UV0-array" count="228" stride="2">
              <param name="S" type="float"/>
              <param name="T" type="float"/>
            </accessor>
          </technique_common>
        </source>
        <vertices id="QuickBallCapsule-VERTEX">
          <input semantic="POSITION" source="#QuickBallCapsule-POSITION"/>
        </vertices>
        <triangles count="208"><input semantic="VERTEX" offset="0" source="#QuickBallCapsule-VERTEX"/><input semantic="NORMAL" offset="1" source="#QuickBallCapsule-Normal0"/><input semantic="TEXCOORD" offset="2" set="0" source="#QuickBallCapsule-UV0"/><p> 18 0 23 1 1 21 19 2 22 1 3 21 18 4 23 0 5 9 1 6 21 2 7 24 20 8 25 1 9 21 20 10 25 19 11 22 20 12 25 3 13 29 21 14 30 3 15 29 20 16 25 2 17 24 4 18 31 21 19 30 3 20 29 21 21 30 4 22 31 22 23 32 23 24 34 4 25 31 5 26 33 4 27 31 23 28 34 22 29 32 24 30 36 5 31 33 6 32 35 5 33 33 24 34 36 23 35 34 24 36 36 7 37 37 25 38 38 7 39 37 24 40 36 6 41 35 8 42 39 25 43 38 7 44 37 25 45 38 8 46 39 26 47 40 26 48 40 9 49 41 27 50 42 9 51 41 26 52 40 8 53 39 10 54 43 28 55 44 9 56 41 27 57 42 9 58 41 28 59 44 29 60 46 10 61 43 11 62 45 10 63 43 29 64 46 28 65 44 30 66 48 11 67 45 12 68 47 11 69 45 30 70 48 29 71 46 30 72 48 13 73 49 31 74 50 13 75 49 30 76 48 12 77 47 14 78 51 31 79 50 13 80 49 31 81 50 14 82 51 32 83 52 32 84 52 14 85 51 33 86 54 14 87 51 15 88 53 33 89 54 16 90 84 34 91 210 15 92 53 15 93 53 34 94 210 33 95 54 17 96 211 34 97 210 16 98 84 34 99 210 17 100 211 35 101 212 18 102 23 17 103 211 0 104 9 17 105 211 18 106 23 35 107 212 18 108 23 19 109 22 36 110 213 19 111 22 20 112 25 36 113 213 20 114 25 21 115 30 36 116 213 21 117 30 22 118 32 36 119 213 22 120 32 23 121 34 36 122 213 23 123 34 24 124 36 36 125 213 24 126 36 25 127 38 36 128 213 25 129 38 26 130 40 36 131 213 26 132 40 27 133 42 36 134 213 27 135 42 28 136 44 36 137 213 28 138 44 29 139 46 36 140 213 29 141 46 30 142 48 36 143 213 30 144 48 31 145 50 36 146 213 31 147 50 32 148 52 36 149 213 32 150 52 33 151 54 36 152 213 33 153 54 34 154 210 36 155 213 34 156 210 35 157 212 36 158 213 35 159 212 18 160 23 36 161 213 41 162 77 37 163 61 40 164 62 37 165 61 41 166 77 38 167 78 42 168 2 38 169 0 41 170 1 38 171 0 42 172 2 39 173 3 40 174 58 39 175 55 42 176 57 39 177 55 40 178 58 37 179 60 40 180 63 42 181 64 41 182 65 47 183 79 43 184 72 46 185 73 43 186 72 47 187 79 44 188 80 48 189 67 44 190 56 47 191 59 44 192 56 48 193 67 45 194 70 46 195 69 45 196 66 48 197 68 45 198 66 46 199 69 43 200 71 46 201 74 48 202 75 47 203 76 0 204 187 108 205 188 1 206 186 1 207 186 108 208 188 109 209 86 1 210 15 109 211 28 2 212 14 2 213 14 109 214 28 110 215 8 110 216 8 3 217 87 2 218 14 3 219 87 110 220 8 111 221 85 3 222 16 112 223 10 4 224 11 112 225 10 3 226 16 111 227 89 4 228 11 112 229 10 5 230 91 5 231 91 112 232 10 113 233 90 5 234 91 113 235 90 6 236 140 6 237 140 113 238 90 114 239 138 7 240 18 6 241 19 114 242 92 7 243 18 114 244 92 115 245 17 115 246 17 8 247 94 7 248 18 8 249 94 115 250 17 102 251 93 8 252 83 104 253 81 9 254 82 104 255 81 8 256 83 102 257 95 9 258 82 104 259 81 10 260 97 10 261 97 104 262 81 103 263 96 105 264 12 10 265 20 103 266 98 10 267 20 105 268 12 11 269 13 106 270 99 11 271 13 105 272 12 11 273 13 106 274 99 12 275 100 12 276 6 98 277 4 13 278 5 98 279 4 12 280 6 106 281 7 13 282 5 99 283 101 14 284 102 99 285 101 13 286 5 98 287 4 14 288 102 99 289 101 15 290 104 15 291 104 99 292 101 100 293 103 101 294 26 15 295 105 100 296 106 15 297 105 101 298 26 16 299 27 107 300 88 16 301 224 101 302 225 16 303 224 107 304 88 17 305 107 17 306 200 108 307 188 0 308 187 108 309 188 17 310 200 107 311 201 50 312 113 52 313 110 51 314 111 52 315 110 50 316 113 49 317 108 50 318 113 54 319 115 53 320 116 54 321 115 50 322 113 51 323 111 54 324 115 55 325 118 53 326 116 55 327 118 54 328 115 56 329 117 56 330 117 57 331 120 55 332 118 57 333 120 56 334 117 58 335 119 59 336 123 57 337 120 60 338 121 57 339 120 58 340 119 60 341 121 62 342 125 61 343 127 59 344 123 62 345 125 59 346 123 60 347 121 63 348 129 62 349 125 64 350 128 62 351 125 63 352 129 61 353 127 65 354 131 64 355 128 66 356 130 64 357 128 65 358 131 63 359 129 66 360 130 67 361 135 65 362 131 67 363 135 66 364 130 68 365 133 70 366 137 67 367 135 68 368 133 67 369 135 70 370 137 69 371 139 71 372 144 70 373 137 72 374 141 70 375 137 71 376 144 69 377 139 73 378 148 72 379 141 74 380 145 72 381 141 73 382 148 71 383 144 73 384 148 76 385 149 75 386 151 76 387 149 73 388 148 74 389 145 77 390 153 76 391 149 78 392 152 76 393 149 77 394 153 75 395 151 80 396 154 77 397 153 78 398 152 77 399 153 80 400 154 79 401 155 80 402 154 81 403 220 79 404 155 81 405 220 80 406 154 82 407 219 83 408 222 81 409 220 84 410 221 81 411 220 82 412 219 84 413 221 49 414 108 84 415 221 52 416 110 84 417 221 49 418 108 83 419 222 52 420 110 85 421 223 51 422 111 51 423 111 85 424 223 54 425 115 54 426 115 85 427 223 56 428 117 56 429 117 85 430 223 58 431 119 58 432 119 85 433 223 60 434 121 60 435 121 85 436 223 62 437 125 62 438 125 85 439 223 64 440 128 64 441 128 85 442 223 66 443 130 66 444 130 85 445 223 68 446 133 68 447 133 85 448 223 70 449 137 70 450 137 85 451 223 72 452 141 72 453 141 85 454 223 74 455 145 74 456 145 85 457 223 76 458 149 76 459 149 85 460 223 78 461 152 78 462 152 85 463 223 80 464 154 80 465 154 85 466 223 82 467 219 82 468 219 85 469 223 84 470 221 84 471 221 85 472 223 52 473 110 89 474 157 87 475 159 86 476 156 87 477 159 89 478 157 88 479 158 89 480 160 91 481 161 90 482 162 89 483 160 90 484 162 88 485 163 86 486 165 90 487 167 91 488 164 90 489 167 86 490 165 87 491 166 87 492 168 88 493 169 90 494 170 95 495 172 93 496 174 92 497 171 93 498 174 95 499 172 94 500 173 95 501 175 97 502 176 96 503 177 95 504 175 96 505 177 94 506 178 92 507 180 96 508 182 97 509 179 96 510 182 92 511 180 93 512 181 93 513 183 94 514 184 96 515 185 103 516 96 104 517 81 50 518 216 104 519 81 49 520 196 50 521 216 103 522 112 53 523 150 105 524 109 53 525 150 103 526 112 50 527 114 55 528 195 105 529 109 53 530 150 105 531 109 55 532 195 106 533 194 98 534 4 55 535 189 57 536 190 55 537 189 98 538 4 106 539 7 99 540 101 98 541 4 59 542 191 98 543 4 57 544 190 59 545 191 100 546 103 99 547 101 61 548 218 99 549 101 59 550 191 61 551 218 100 552 124 63 553 192 101 554 122 63 555 192 100 556 124 61 557 126 101 558 122 65 559 199 107 560 193 65 561 199 101 562 122 63 563 192 108 564 188 65 565 202 67 566 214 65 567 202 108 568 188 107 569 201 109 570 86 108 571 188 69 572 215 108 573 188 67 574 214 69 575 215 110 576 132 69 577 136 71 578 203 69 579 136 110 580 132 109 581 134 111 582 204 71 583 203 73 584 205 71 585 203 111 586 204 110 587 132 112 588 10 73 589 142 75 590 143 73 591 142 112 592 10 111 593 89 113 594 90 75 595 143 77 596 206 75 597 143 113 598 90 112 599 10 114 600 138 113 601 90 79 602 207 113 603 90 77 604 206 79 605 207 79 606 208 115 607 146 114 608 147 115 609 146 79 610 208 81 611 209 102 612 197 81 613 226 83 614 227 81 615 226 102 616 197 115 617 198 104 618 81 83 619 217 49 620 196 83 621 217 104 622 81 102 623 95</p></triangles>
      </mesh>
    </geometry>
  </library_geometries>
  <library_visual_scenes>
    <visual_scene id="QuickBallCapsule" name="QuickBallCapsule">
      <node name="QuickBallCapsule" id="QuickBallCapsule" sid="QuickBallCapsule"><matrix sid="matrix">-1.000000 0.000000 0.000000 -32.845882 0.000000 1.000000 0.000000 3.819503 0.000000 -0.000000 0.647418 -139.118347 0.000000 0.000000 0.000000 1.000000</matrix><instance_geometry url="#QuickBallCapsule-lib"/><extra><technique profile="FCOLLADA"><visibility>1.000000</visibility></technique></extra></node>
      <extra><technique profile="MAX3D"><frame_rate>30.000000</frame_rate></technique><technique profile="FCOLLADA"><start_time>0.000000</start_time><end_time>0.833333</end_time></technique></extra>
    </visual_scene>
  </library_visual_scenes>
  <scene>
    <instance_visual_scene url="#QuickBallCapsule"></instance_visual_scene>
  </scene>
</COLLADA>
