<?xml version="1.0" encoding="utf-8"?>
<COLLADA xmlns="http://www.collada.org/2005/11/COLLADASchema" version="1.4.1">
  <asset><contributor><author></author><authoring_tool></authoring_tool><comments></comments></contributor><created></created><keywords></keywords><modified></modified><revision></revision><subject></subject><title></title><unit meter="1.000000" name="centimeter"></unit><up_axis>Y_UP</up_axis></asset>
  <library_geometries>
    <geometry id="SmallBallCapsule-lib" name="SmallBallCapsuleMesh">
      <mesh>
        <source id="SmallBallCapsule-POSITION">
          <float_array id="SmallBallCapsule-POSITION-array" count="324">
2.884863 0.000000 1.093809
2.710884 0.986681 1.093809
2.209933 1.854354 1.093809
1.442431 2.498365 1.093809
0.500951 2.841036 1.093809
-0.500951 2.841035 1.093809
-1.442432 2.498364 1.093809
-2.209933 1.854354 1.093809
-2.710884 0.986682 1.093809
-2.884863 0.000001 1.093809
-2.710884 -0.986680 1.093809
-2.209934 -1.854353 1.093809
-1.442432 -2.498364 1.093809
-0.500952 -2.841035 1.093809
0.500950 -2.841035 1.093809
1.442430 -2.498365 1.093809
2.209932 -1.854355 1.093809
2.710884 -0.986683 1.093809
1.748217 0.000000 1.769353
1.642787 0.597926 1.769353
1.339212 1.123733 1.769353
0.874109 1.514001 1.769353
0.303575 1.721658 1.769353
-0.303575 1.721658 1.769353
-0.874109 1.514001 1.769353
-1.339212 1.123733 1.769353
-1.642787 0.597926 1.769353
-1.748217 0.000000 1.769353
-1.642787 -0.597925 1.769353
-1.339212 -1.123732 1.769353
-0.874109 -1.514000 1.769353
-0.303575 -1.721658 1.769353
0.303574 -1.721658 1.769353
0.874108 -1.514001 1.769353
1.339211 -1.123733 1.769353
1.642786 -0.597927 1.769353
-0.000000 0.000000 2.115067
2.204766 -0.601981 2.139901
-2.204766 -0.601981 2.139901
2.204766 0.601981 2.139901
-2.204766 0.601981 2.139901
2.204765 -0.601981 1.165202
-2.204765 -0.601981 1.165202
2.204765 0.601981 1.165202
-2.204765 0.601981 1.165202
2.947259 2.473044 -0.000008
1.923687 3.331924 -0.000008
0.668089 3.788924 -0.000008
-3.615349 -1.315878 -0.000008
3.615348 -1.315882 -0.000008
2.884863 0.000000 -1.093825
2.710884 0.986681 -1.093825
1.642787 0.597926 -1.769369
1.748217 0.000000 -1.769369
2.209933 1.854354 -1.093825
1.339212 1.123733 -1.769369
1.442431 2.498365 -1.093825
0.874109 1.514001 -1.769369
0.500951 2.841036 -1.093825
0.303575 1.721658 -1.769369
-0.500951 2.841035 -1.093825
-0.303575 1.721658 -1.769369
-1.442432 2.498364 -1.093825
-0.874109 1.514001 -1.769369
-2.209933 1.854354 -1.093825
-1.339212 1.123733 -1.769369
-2.710884 0.986682 -1.093825
-1.642787 0.597926 -1.769369
-2.884863 0.000001 -1.093825
-1.748217 0.000000 -1.769369
-2.710884 -0.986680 -1.093825
-1.642787 -0.597925 -1.769369
-2.209934 -1.854353 -1.093825
-1.339212 -1.123732 -1.769369
-1.442432 -2.498364 -1.093825
-0.874109 -1.514000 -1.769369
-0.500952 -2.841035 -1.093825
-0.303575 -1.721658 -1.769369
0.500950 -2.841035 -1.093825
0.303574 -1.721658 -1.769369
1.442430 -2.498365 -1.093825
0.874108 -1.514001 -1.769369
2.209932 -1.854355 -1.093825
1.339211 -1.123733 -1.769369
2.710884 -0.986683 -1.093825
1.642786 -0.597927 -1.769369
-0.000000 0.000000 -2.115084
2.204766 -0.601981 -2.139917
2.204766 0.601981 -2.139917
-2.204766 0.601981 -2.139917
-2.204766 -0.601981 -2.139917
-2.204765 -0.601981 -1.165218
2.204765 -0.601981 -1.165218
-2.204765 0.601981 -1.165218
2.204765 0.601981 -1.165218
3.615349 1.315880 -0.000008
3.847374 0.000000 -0.000008
-0.668090 3.788924 -0.000008
-1.923687 3.331924 -0.000008
-2.947259 2.473044 -0.000008
-3.615349 1.315880 -0.000008
-3.847374 0.000001 -0.000008
-2.947260 -2.473043 -0.000008
-1.923688 -3.331923 -0.000008
-0.668091 -3.788923 -0.000008
0.668088 -3.788924 -0.000008
1.923685 -3.331924 -0.000008
2.947258 -2.473046 -0.000008
</float_array>
          <technique_common>
            <accessor source="#SmallBallCapsule-POSITION-array" count="108" stride="3">
              <param name="X" type="float"/>
              <param name="Y" type="float"/>
              <param name="Z" type="float"/>
            </accessor>
          </technique_common>
        </source>
        <source id="SmallBallCapsule-Normal0">
          <float_array id="SmallBallCapsule-Normal0-array" count="1800">
0.609514 0.221845 0.761103
0.221845 0.761103 0.351303
0.927490 0.373849 -0.000000
0.221845 0.761103 0.351303
0.609514 0.221845 0.761103
0.648632 -0.000000 0.761103
0.416932 0.761103 0.286385
0.927490 0.351303 0.127864
0.496881 0.416932 0.761103
0.416932 0.761103 0.286385
0.496881 0.416932 0.761103
0.561731 0.761103 0.186924
0.927490 0.186924 0.323762
0.927490 0.286385 0.240305
0.638777 0.761103 0.064918
0.927490 0.286385 0.240305
0.324316 0.561731 0.761103
0.638777 0.761103 0.064918
0.638777 0.761103 -0.064918
-0.112634 0.638777 0.761103
0.112634 0.638777 0.761103
-0.112634 0.638777 0.761103
0.638777 0.761103 -0.064918
0.927490 0.064918 0.368169
0.927490 -0.064918 0.368169
0.416932 0.761103 -0.286385
0.561731 0.761103 -0.186924
0.416932 0.761103 -0.286385
0.927490 -0.064918 0.368169
-0.324316 0.561731 0.761103
0.221845 0.761103 -0.351303
0.927490 -0.186924 0.323762
-0.496881 0.416932 0.761103
0.927490 -0.186924 0.323762
0.221845 0.761103 -0.351303
0.927490 -0.286385 0.240305
-0.648632 0.000000 0.761103
0.000000 0.761103 -0.373849
0.927490 -0.351303 0.127864
0.000000 0.761103 -0.373849
-0.648632 0.000000 0.761103
-0.609514 0.221845 0.761103
0.927490 -0.373849 0.000000
-0.416932 0.761103 -0.286385
-0.221845 0.761103 -0.351303
-0.416932 0.761103 -0.286385
0.927490 -0.373849 0.000000
-0.609514 -0.221845 0.761103
0.927490 -0.286385 -0.240305
0.927490 -0.351303 -0.127864
-0.561731 0.761103 -0.186924
0.927490 -0.351303 -0.127864
-0.496881 -0.416932 0.761103
-0.561731 0.761103 -0.186924
-0.638777 0.761103 -0.064918
-0.112634 -0.638777 0.761103
-0.324316 -0.561731 0.761103
-0.112634 -0.638777 0.761103
-0.638777 0.761103 -0.064918
0.927490 -0.186924 -0.323762
0.112633 -0.638777 0.761103
-0.638777 0.761103 0.064918
0.927490 -0.064918 -0.368169
-0.638777 0.761103 0.064918
0.112633 -0.638777 0.761103
-0.561732 0.761103 0.186924
0.324315 -0.561732 0.761103
0.927490 0.186924 -0.323762
0.927490 0.064918 -0.368169
0.927490 0.186924 -0.323762
0.324315 -0.561732 0.761103
-0.416933 0.761103 0.286384
0.496880 -0.416933 0.761103
0.927490 0.286384 -0.240305
0.609514 -0.221845 0.761103
0.927490 0.286384 -0.240305
0.496880 -0.416933 0.761103
-0.221845 0.761103 0.351303
0.927490 0.351303 -0.127864
0.127864 0.927490 -0.000000
-0.000000 0.761103 0.373849
0.127864 0.927490 -0.000000
0.927490 0.351303 -0.127864
0.373849 -0.000000 0.927490
0.927490 0.186924 0.323762
1.000000 0.351303 0.127864
0.000000 1.000000 0.286385
1.000000 0.351303 0.127864
0.286385 0.240305 0.927490
0.000000 1.000000 0.286385
0.323762 0.927490 0.064918
0.064918 0.368169 0.927490
-0.000000 0.000000 1.000000
0.064918 0.368169 0.927490
0.323762 0.927490 0.064918
0.927490 -0.000000 0.000000
1.000000 -0.064918 0.368169
0.000000 1.000000 -0.186924
0.368169 0.927490 -0.000000
0.000000 1.000000 -0.186924
1.000000 -0.064918 0.368169
-0.186924 0.323762 0.927490
-0.000000 0.000000 1.000000
0.927490 -0.000000 0.000000
0.927490 -0.286385 0.240305
0.927490 -0.000000 0.000000
-0.000000 0.000000 1.000000
0.240305 0.927490 -0.351303
-0.351303 0.127864 0.927490
0.000000 0.927490 -0.000000
1.000000 -0.373849 0.000000
-0.351303 -0.127864 0.927490
0.000000 1.000000 -0.351303
0.927490 -0.286385 -0.240305
-0.000000 0.000000 1.000000
-0.240305 0.927490 -0.186924
0.927490 -0.000000 0.000000
-0.186924 -0.323762 0.927490
-0.368169 0.927490 -0.000000
1.000000 -0.064918 -0.368169
0.064918 -0.368169 0.927490
0.000000 1.000000 0.064918
0.927490 0.186924 -0.323762
-0.000000 0.000000 1.000000
-0.323762 0.927490 0.286384
0.927490 -0.000000 0.000000
0.286384 -0.240305 0.927490
-0.127864 0.927490 -0.000000
1.000000 0.351303 -0.127864
0.373849 -0.000000 0.927490
0.000000 1.000000 0.000000
1.000000 0.000000 0.000000
0.000000 0.000000 1.000000
0.000000 1.000000 0.000000
0.000000 0.000000 -1.000000
0.000000 -1.000000 0.000000
-1.000000 0.000000 -1.000000
-0.000000 -1.000000 0.000000
-1.000000 0.000000 -0.000000
0.000000 -0.000000 0.000000
-0.000000 0.000000 1.000000
0.000000 1.000000 -0.000000
1.000000 -0.000000 1.000000
-0.000000 1.000000 0.000000
1.000000 0.000000 -0.000000
0.000000 -0.000000 0.609514
0.761103 0.648632 -0.000000
0.750730 -0.000000 0.660609
0.256765 0.660609 0.496881
0.761103 0.609514 0.221845
0.705455 0.256765 0.660609
0.482560 0.660609 0.324316
0.761103 0.496881 0.416932
0.575092 0.482560 0.660609
0.650151 0.660609 0.112634
0.761103 0.324316 0.561731
0.375365 0.650151 0.660609
0.739324 0.660609 -0.112634
0.761103 0.112634 0.638777
0.130363 0.739324 0.660609
0.739324 0.660609 -0.324316
0.761103 -0.112634 0.638777
0.761103 -0.324316 0.561731
-0.130363 0.739324 0.660609
0.650151 0.660609 -0.496881
-0.130363 0.739324 0.660609
0.761103 -0.324316 0.561731
-0.375365 0.650151 0.660609
0.482560 0.660609 -0.609514
0.761103 -0.496881 0.416932
-0.575092 0.482560 0.660609
0.482560 0.660609 -0.609514
-0.575092 0.482560 0.660609
0.256765 0.660609 -0.648632
-0.705455 0.256765 0.660609
0.000000 0.660609 -0.609514
0.761103 -0.609514 0.221845
0.761103 -0.609514 0.221845
0.000000 0.660609 -0.609514
0.761103 -0.648632 0.000000
-0.750730 0.000000 0.660609
-0.256765 0.660609 -0.496881
0.761103 -0.609514 -0.221845
-0.750730 0.000000 0.660609
0.761103 -0.609514 -0.221845
-0.705455 -0.256765 0.660609
0.761103 -0.496881 -0.416932
-0.650151 0.660609 -0.112634
-0.482560 0.660609 -0.324316
-0.650151 0.660609 -0.112634
0.761103 -0.496881 -0.416932
-0.575092 -0.482560 0.660609
-0.375365 -0.650151 0.660609
-0.739324 0.660610 0.112633
0.761103 -0.324316 -0.561731
0.761103 -0.324316 -0.561731
-0.739324 0.660610 0.112633
0.761103 -0.112634 -0.638777
-0.739325 0.660609 0.324315
0.130362 -0.739325 0.660609
-0.130363 -0.739324 0.660610
0.130362 -0.739325 0.660609
-0.739325 0.660609 0.324315
0.761103 0.112633 -0.638777
0.375364 -0.650151 0.660609
-0.650151 0.660609 0.496880
0.761103 0.324315 -0.561732
-0.650151 0.660609 0.496880
0.375364 -0.650151 0.660609
-0.482560 0.660609 0.609514
0.575092 -0.482560 0.660609
0.761103 0.609514 -0.221845
0.761103 0.496880 -0.416933
0.761103 0.609514 -0.221845
0.575092 -0.482560 0.660609
-0.256765 0.660609 0.648632
-0.000000 0.660609 0.648632
-0.761103 0.373849 -0.000000
0.705455 -0.256765 0.660609
0.705455 -0.256765 0.660609
-0.761103 0.373849 -0.000000
0.351303 0.127864 -0.927490
-0.761103 0.351303 0.127864
0.286385 0.240305 -0.927490
0.221845 -0.761103 0.609514
0.221845 -0.761103 0.609514
0.286385 0.240305 -0.927490
0.416932 -0.761103 0.496881
0.186924 0.323762 -0.927490
-0.761103 0.186924 0.323762
-0.761103 0.286385 0.240305
-0.761103 0.186924 0.323762
0.186924 0.323762 -0.927490
0.561731 -0.761103 0.324316
-0.761103 0.064918 0.368169
0.064918 0.368169 -0.927490
0.638777 -0.761103 0.112634
0.064918 0.368169 -0.927490
-0.761103 0.064918 0.368169
-0.064918 0.368169 -0.927490
-0.761103 -0.064918 0.368169
0.561731 -0.761103 -0.324316
0.638777 -0.761103 -0.112634
0.561731 -0.761103 -0.324316
-0.761103 -0.064918 0.368169
-0.186924 0.323762 -0.927490
-0.286385 0.240305 -0.927490
0.416932 -0.761103 -0.496881
-0.761103 -0.186924 0.323762
-0.761103 -0.186924 0.323762
0.416932 -0.761103 -0.496881
-0.761103 -0.286385 0.240305
-0.761103 -0.351303 0.127864
-0.373849 0.000000 -0.927490
-0.351303 0.127864 -0.927490
-0.761103 -0.351303 0.127864
-0.351303 0.127864 -0.927490
0.221845 -0.761103 -0.609514
-0.221845 -0.761103 -0.609514
-0.761103 -0.373849 0.000000
-0.351303 -0.127864 -0.927490
-0.761103 -0.373849 0.000000
-0.221845 -0.761103 -0.609514
0.000000 -0.761103 -0.648632
-0.286385 -0.240305 -0.927490
-0.761103 -0.286385 -0.240305
-0.761103 -0.351303 -0.127864
-0.761103 -0.286385 -0.240305
-0.286385 -0.240305 -0.927490
-0.416932 -0.761103 -0.496881
-0.561731 -0.761103 -0.324316
-0.064918 -0.368169 -0.927490
-0.186924 -0.323762 -0.927490
-0.064918 -0.368169 -0.927490
-0.561731 -0.761103 -0.324316
-0.761103 -0.186924 -0.323762
-0.761103 -0.064918 -0.368169
0.064918 -0.368169 -0.927490
-0.638777 -0.761103 -0.112634
-0.638777 -0.761103 -0.112634
0.064918 -0.368169 -0.927490
-0.638777 -0.761103 0.112633
-0.761103 0.064918 -0.368169
-0.561732 -0.761103 0.324315
-0.761103 0.186924 -0.323762
-0.561732 -0.761103 0.324315
-0.761103 0.064918 -0.368169
0.186924 -0.323762 -0.927490
-0.761103 0.286384 -0.240305
0.351303 -0.127864 -0.927490
0.286384 -0.240305 -0.927490
-0.761103 0.286384 -0.240305
0.286384 -0.240305 -0.927490
-0.416933 -0.761103 0.496880
-0.761103 0.351303 -0.127864
-0.000000 -0.761103 0.373849
-0.221845 -0.761103 0.609514
-0.000000 -0.761103 0.373849
-0.761103 0.351303 -0.127864
0.373849 -0.000000 -0.927490
0.351303 0.127864 -0.927490
-1.000000 0.286385 0.240305
-0.927490 -0.000000 0.000000
-1.000000 0.286385 0.240305
0.351303 0.127864 -0.927490
0.127864 -0.927490 -0.000000
-0.000000 0.000000 -1.000000
0.286385 0.240305 -0.927490
-0.927490 0.186924 0.323762
0.286385 0.240305 -0.927490
0.000000 -1.000000 0.186924
-0.927490 0.186924 0.323762
-0.064918 0.368169 -0.927490
0.368169 -0.927490 -0.000000
0.368169 -0.927490 0.064918
0.368169 -0.927490 0.064918
-0.927490 -0.000000 0.000000
-0.064918 0.368169 -0.927490
-0.927490 -0.286385 0.240305
-0.186924 0.323762 -0.927490
0.000000 -1.000000 -0.286385
-0.186924 0.323762 -0.927490
-0.927490 -0.286385 0.240305
-1.000000 -0.186924 0.323762
-0.373849 0.000000 -0.927490
0.127864 -0.927490 -0.351303
-0.927490 -0.000000 0.000000
0.127864 -0.927490 -0.351303
-0.373849 0.000000 -0.927490
-0.000000 0.000000 -1.000000
-0.351303 -0.127864 -0.927490
0.000000 -0.927490 -0.000000
-1.000000 -0.351303 -0.127864
0.000000 -0.927490 -0.000000
-0.351303 -0.127864 -0.927490
0.000000 -1.000000 -0.286385
-0.000000 0.000000 -1.000000
-0.927490 -0.000000 0.000000
-0.927490 -0.286385 -0.240305
-0.927490 -0.000000 0.000000
-0.000000 0.000000 -1.000000
-0.323762 -0.927490 -0.186924
0.064918 -0.368169 -0.927490
-0.368169 -0.927490 -0.000000
-1.000000 0.064918 -0.368169
-0.368169 -0.927490 -0.000000
0.064918 -0.368169 -0.927490
-0.064918 -0.368169 -0.927490
-0.000000 0.000000 -1.000000
-0.240305 -0.927490 0.286384
0.000000 -1.000000 0.186924
-0.000000 0.000000 -1.000000
0.000000 -1.000000 0.186924
-0.927490 0.186924 -0.323762
-1.000000 0.373849 -0.000000
0.351303 -0.127864 -0.927490
-0.127864 -0.927490 -0.000000
0.351303 -0.127864 -0.927490
-1.000000 0.373849 -0.000000
-0.927490 -0.000000 0.000000
0.000000 0.000000 -1.000000
-1.000000 0.000000 0.000000
0.000000 -1.000000 -0.000000
-1.000000 0.000000 0.000000
0.000000 0.000000 -1.000000
0.000000 -1.000000 0.000000
-0.000000 0.000000 -1.000000
0.000000 0.000000 -1.000000
-1.000000 -0.000000 0.000000
0.000000 0.000000 -1.000000
-0.000000 0.000000 -1.000000
-1.000000 0.000000 0.000000
0.000000 -1.000000 0.000000
0.000000 1.000000 0.000000
1.000000 0.000000 0.000000
0.000000 -1.000000 0.000000
1.000000 0.000000 0.000000
0.000000 0.000000 1.000000
0.750730 -0.000000 -0.660609
0.000000 0.000000 1.000000
0.000000 1.000000 0.000000
0.000000 0.000000 1.000000
0.750730 -0.000000 -0.660609
1.000000 0.000000 0.000000
0.705455 0.256765 -0.660609
0.221845 -0.761103 0.496881
-0.000000 -0.761103 0.609514
0.705455 0.256765 -0.660609
-0.000000 -0.761103 0.609514
-0.761103 0.705455 0.256765
-0.761103 0.375365 0.650151
0.575092 0.482560 -0.660609
0.416932 -0.761103 0.324316
0.575092 0.482560 -0.660609
-0.761103 0.375365 0.650151
-0.761103 0.575092 0.482560
0.130363 0.739324 -0.660609
0.561731 -0.761103 0.112634
-0.761103 0.130363 0.739324
0.561731 -0.761103 0.112634
0.130363 0.739324 -0.660609
0.375365 0.650151 -0.660609
-0.761103 -0.130363 0.739324
0.638777 -0.761103 -0.324316
0.638777 -0.761103 -0.112634
0.638777 -0.761103 -0.324316
-0.761103 -0.130363 0.739324
-0.130363 0.739324 -0.660609
-0.761103 -0.375365 0.650151
-0.375365 0.650151 -0.660609
0.561731 -0.761103 -0.496881
-0.761103 -0.575092 0.482560
-0.575092 0.482560 -0.660609
0.416932 -0.761103 -0.609514
-0.761103 -0.705455 0.256765
-0.705455 0.256765 -0.660609
0.221845 -0.761103 -0.648632
-0.761103 -0.750730 0.000000
-0.750730 0.000000 -0.660609
0.000000 -0.761103 -0.609514
-0.761103 -0.705455 -0.256765
-0.705455 -0.256765 -0.660609
-0.221845 -0.761103 -0.496881
-0.761103 -0.575092 -0.482560
-0.575092 -0.482560 -0.660609
-0.416932 -0.761103 -0.324316
-0.761103 -0.375365 -0.650151
-0.375365 -0.650151 -0.660609
-0.561731 -0.761103 -0.112634
-0.761103 -0.130363 -0.739324
-0.130363 -0.739324 -0.660609
-0.638777 -0.761103 0.112633
-0.761103 0.130362 -0.739325
0.130362 -0.739325 -0.660609
-0.638777 -0.761103 0.324315
-0.761103 0.375364 -0.650151
0.375364 -0.650151 -0.660609
-0.561732 -0.761103 0.496880
-0.761103 0.575092 -0.482560
0.575092 -0.482560 -0.660609
-0.416933 -0.761103 0.609514
-0.761103 0.705455 -0.256765
0.705455 -0.256765 -0.660609
-0.221845 -0.761103 0.648632
-0.761103 0.750730 -0.000000
0.000000 0.000000 0.000000
0.000000 0.000000 0.000000
0.000000 0.000000 0.000000
0.000000 0.000000 0.000000
0.000000 0.000000 0.000000
0.000000 0.000000 0.000000
0.000000 0.000000 0.000000
0.000000 0.000000 0.000000
0.000000 0.000000 0.000000
0.000000 0.000000 0.000000
0.000000 0.000000 0.000000
0.000000 0.000000 0.000000
0.000000 0.000000 0.000000
0.000000 0.000000 0.000000
0.000000 0.000000 0.000000
0.000000 0.000000 0.000000
0.000000 0.000000 0.000000
0.000000 0.000000 0.000000
0.000000 0.000000 0.000000
0.000000 0.000000 0.000000
0.000000 0.000000 0.000000
0.000000 0.000000 0.000000
0.000000 0.000000 0.000000
0.000000 0.000000 0.000000
0.000000 0.000000 0.000000
0.000000 0.000000 0.000000
0.000000 0.000000 0.000000
0.000000 0.000000 0.000000
0.000000 0.000000 0.000000
0.000000 0.000000 0.000000
0.000000 0.000000 0.000000
0.000000 0.000000 0.000000
0.000000 0.000000 0.000000
0.000000 0.000000 0.000000
0.000000 0.000000 0.000000
0.000000 0.000000 0.000000
0.000000 0.000000 0.000000
0.000000 0.000000 0.000000
0.000000 0.000000 0.000000
0.000000 0.000000 0.000000
0.000000 0.000000 0.000000
0.000000 0.000000 0.000000
0.000000 0.000000 0.000000
0.000000 0.000000 0.000000
0.000000 0.000000 0.000000
0.000000 0.000000 0.000000
0.000000 0.000000 0.000000
0.000000 0.000000 0.000000
0.000000 0.000000 0.000000
0.000000 0.000000 0.000000
0.000000 0.000000 0.000000
0.000000 0.000000 0.000000
0.000000 0.000000 0.000000
0.000000 0.000000 0.000000
0.000000 0.000000 0.000000
0.000000 0.000000 0.000000
0.000000 0.000000 0.000000
0.000000 0.000000 0.000000
0.000000 0.000000 0.000000
0.000000 0.000000 0.000000
0.000000 0.000000 0.000000
0.000000 0.000000 0.000000
0.000000 0.000000 0.000000
0.000000 0.000000 0.000000
0.000000 0.000000 0.000000
0.000000 0.000000 0.000000
0.000000 0.000000 0.000000
0.000000 0.000000 0.000000
0.000000 0.000000 0.000000
0.000000 0.000000 0.000000
0.000000 0.000000 0.000000
0.000000 0.000000 0.000000
0.000000 0.000000 0.000000
0.000000 0.000000 0.000000
0.000000 0.000000 0.000000
0.000000 0.000000 0.000000
0.000000 0.000000 0.000000
0.000000 0.000000 0.000000
0.000000 0.000000 0.000000
0.000000 0.000000 0.000000
0.000000 0.000000 0.000000
0.000000 0.000000 0.000000
0.000000 0.000000 0.000000
0.000000 0.000000 0.000000
0.000000 0.000000 0.000000
0.000000 0.000000 0.000000
0.000000 0.000000 0.000000
0.000000 0.000000 0.000000
0.000000 0.000000 0.000000
0.000000 0.000000 0.000000
0.000000 0.000000 0.000000
0.000000 0.000000 0.000000
0.000000 0.000000 0.000000
0.000000 0.000000 0.000000
0.000000 0.000000 0.000000
0.000000 0.000000 0.000000
0.000000 0.000000 0.000000
0.000000 0.000000 0.000000
0.000000 0.000000 0.000000
0.000000 0.000000 0.000000
0.000000 0.000000 0.000000
0.000000 0.000000 0.000000
0.000000 0.000000 0.000000
0.000000 0.000000 0.000000
0.000000 0.000000 0.000000
0.000000 0.000000 0.000000
0.000000 0.000000 0.000000
0.000000 0.000000 0.000000
0.000000 0.000000 0.000000
0.000000 0.000000 0.000000
0.000000 0.000000 0.000000
0.000000 0.000000 0.000000
0.000000 0.000000 0.000000
0.000000 0.000000 0.000000
0.000000 0.000000 0.000000
0.000000 0.000000 0.000000
0.000000 0.000000 0.000000
0.000000 0.000000 0.000000
0.000000 0.000000 0.000000
0.000000 0.000000 0.000000
0.000000 0.000000 0.000000
0.000000 0.000000 0.000000
0.000000 0.000000 0.000000
0.000000 0.000000 0.000000
0.000000 0.000000 0.000000
0.000000 0.000000 0.000000
0.000000 0.000000 0.000000
0.000000 0.000000 0.000000
0.000000 0.000000 0.000000
0.000000 0.000000 0.000000
0.000000 0.000000 0.000000
0.000000 0.000000 0.000000
0.000000 0.000000 0.000000
0.000000 0.000000 0.000000
0.000000 0.000000 0.000000
0.000000 0.000000 0.000000
0.000000 0.000000 0.000000
0.000000 0.000000 0.000000
0.000000 0.000000 0.000000
0.000000 0.000000 0.000000
0.000000 0.000000 0.000000
0.000000 0.000000 0.000000
0.000000 0.000000 0.000000
0.000000 0.000000 0.000000
0.000000 0.000000 0.000000
0.000000 0.000000 0.000000
0.000000 0.000000 0.000000
0.000000 0.000000 0.000000
0.000000 0.000000 0.000000
0.000000 0.000000 0.000000
0.000000 0.000000 0.000000
0.000000 0.000000 0.000000
0.000000 0.000000 0.000000
0.000000 0.000000 0.000000
0.000000 0.000000 0.000000
</float_array>
          <technique_common>
            <accessor source="#SmallBallCapsule-Normal0-array" count="600" stride="3">
              <param name="X" type="float"/>
              <param name="Y" type="float"/>
              <param name="Z" type="float"/>
            </accessor>
          </technique_common>
        </source>
        <source id="SmallBallCapsule-UV0">
          <float_array id="SmallBallCapsule-UV0-array" count="416">
0.658445 0.344266
0.732200 0.344266
0.732200 0.360569
0.658445 0.360569
0.117636 0.750997
0.191391 0.750997
0.191391 0.767300
0.117636 0.767300
0.510705 0.476106
0.510705 0.459803
0.584460 0.459803
0.584460 0.476106
0.771578 0.246480
0.771578 0.230177
0.845334 0.230177
0.845334 0.246480
0.514489 0.933834
0.534627 0.933834
0.534627 0.950137
0.514489 0.950137
0.335113 0.166236
0.332042 0.183652
0.608641 0.509483
0.580383 0.423242
0.257931 0.595373
0.261213 0.616855
0.490055 0.309153
0.490055 0.330361
0.608615 0.534066
0.591821 0.535988
0.242723 0.616855
0.788314 0.428573
0.788339 0.403990
0.883760 0.370804
0.883785 0.346221
0.900580 0.344299
0.659680 0.137571
0.662962 0.159053
0.494307 0.848802
0.470098 0.846007
0.805134 0.402068
0.313189 0.176790
0.315050 0.166236
0.323200 0.198968
0.307831 0.186071
0.309653 0.210335
0.299621 0.192960
0.293035 0.216383
0.289551 0.196625
0.275350 0.216383
0.278834 0.196625
0.258732 0.210335
0.268763 0.192960
0.245185 0.198968
0.260554 0.186071
0.236342 0.183652
0.255195 0.176790
0.233271 0.166236
0.253334 0.166236
0.236342 0.148820
0.255195 0.155682
0.245185 0.133505
0.260554 0.146401
0.258732 0.122137
0.268763 0.139512
0.275350 0.116089
0.278834 0.135847
0.293035 0.116089
0.289551 0.135847
0.309653 0.122137
0.299621 0.139512
0.323200 0.133505
0.307831 0.146401
0.332042 0.148820
0.313189 0.155682
0.284192 0.166236
0.219478 0.394413
0.199415 0.394413
0.002000 0.737163
0.002000 0.717025
0.075755 0.717025
0.075755 0.737163
0.635948 0.817079
0.635948 0.800776
0.656086 0.800776
0.656086 0.817079
0.741757 0.731451
0.761895 0.731451
0.761895 0.747754
0.741757 0.747754
0.597945 0.820216
0.597945 0.803912
0.618083 0.803912
0.618083 0.820216
0.644472 0.159053
0.635020 0.137571
0.586242 0.512046
0.630262 0.512091
0.574000 0.444449
0.624828 0.536022
0.775516 0.570139
0.233271 0.595373
0.284172 0.595373
0.280890 0.616855
0.810712 0.426010
0.766692 0.425965
0.772127 0.402034
0.470925 0.330361
0.464543 0.309153
0.906158 0.368241
0.862139 0.368196
0.867573 0.344266
0.685921 0.137571
0.682639 0.159053
0.710581 0.137571
0.701129 0.159053
0.470098 0.829248
0.494307 0.826453
0.747433 0.565846
0.197554 0.383859
0.216407 0.376997
0.192195 0.374578
0.207564 0.361682
0.183986 0.367690
0.194017 0.350314
0.173915 0.364024
0.177399 0.344266
0.163198 0.364024
0.159714 0.344266
0.153128 0.367690
0.143096 0.350314
0.144918 0.374578
0.129549 0.361682
0.139560 0.383859
0.120706 0.376997
0.137699 0.394413
0.117636 0.394413
0.139560 0.404967
0.120706 0.411829
0.144918 0.414248
0.129549 0.427145
0.153128 0.421137
0.143096 0.438512
0.163198 0.424802
0.159714 0.444561
0.173915 0.424802
0.177399 0.444561
0.183986 0.421137
0.194017 0.438512
0.192195 0.414248
0.207564 0.427145
0.197554 0.404967
0.216407 0.411829
0.168557 0.394413
0.117636 0.717065
0.191391 0.717065
0.191391 0.737203
0.117636 0.737203
0.607610 0.550394
0.630003 0.552998
0.554870 0.444449
0.554870 0.423242
0.624381 0.576930
0.607589 0.574977
0.585984 0.552962
0.591374 0.576902
0.308832 0.595373
0.299380 0.616855
0.242723 0.573891
0.261213 0.573891
0.280890 0.573891
0.299380 0.573891
0.254898 0.861217
0.277291 0.863822
0.271668 0.887753
0.254877 0.885800
0.233271 0.863786
0.238661 0.887726
0.515568 0.309153
0.509186 0.330361
0.470925 0.287946
0.490055 0.287946
0.665682 0.509483
0.688075 0.512087
0.682453 0.536019
0.665662 0.534066
0.644056 0.512051
0.649446 0.535992
0.644472 0.116089
0.662962 0.116089
0.682639 0.116089
0.701129 0.116089
0.514489 0.796745
0.514489 0.774395
0.538698 0.777191
0.538698 0.793949
0.470098 0.776384
0.473264 0.756645
0.535739 0.444449
0.529357 0.423242
0.554870 0.402034
0.574000 0.402034
0.535739 0.402034
0.509186 0.287946
0.745087 0.551041
0.772386 0.550394
0.500562 0.757342
0.498188 0.772144
</float_array>
          <technique_common>
            <accessor source="#SmallBallCapsule-UV0-array" count="208" stride="2">
              <param name="S" type="float"/>
              <param name="T" type="float"/>
            </accessor>
          </technique_common>
        </source>
        <vertices id="SmallBallCapsule-VERTEX">
          <input semantic="POSITION" source="#SmallBallCapsule-POSITION"/>
        </vertices>
        <triangles count="200"><input semantic="VERTEX" offset="0" source="#SmallBallCapsule-VERTEX"/><input semantic="NORMAL" offset="1" source="#SmallBallCapsule-Normal0"/><input semantic="TEXCOORD" offset="2" set="0" source="#SmallBallCapsule-UV0"/><p> 18 0 42 1 1 21 19 2 41 1 3 21 18 4 42 0 5 20 1 6 21 2 7 43 20 8 44 1 9 21 20 10 44 19 11 41 20 12 44 2 13 43 21 14 46 2 15 43 3 16 45 21 17 46 4 18 47 21 19 46 3 20 45 21 21 46 4 22 47 22 23 48 5 24 49 22 25 48 4 26 47 22 27 48 5 28 49 23 29 50 24 30 52 5 31 49 6 32 51 5 33 49 24 34 52 23 35 50 24 36 52 7 37 53 25 38 54 7 39 53 24 40 52 6 41 51 8 42 55 25 43 54 7 44 53 25 45 54 8 46 55 26 47 56 26 48 56 8 49 55 27 50 58 8 51 55 9 52 57 27 53 58 10 54 59 27 55 58 9 56 57 27 57 58 10 58 59 28 59 60 29 60 62 10 61 59 11 62 61 10 63 59 29 64 62 28 65 60 12 66 63 29 67 62 11 68 61 29 69 62 12 70 63 30 71 64 12 72 63 31 73 66 30 74 64 31 75 66 12 76 63 13 77 65 14 78 67 31 79 66 13 80 65 31 81 66 14 82 67 32 83 68 32 84 68 14 85 67 33 86 70 14 87 67 15 88 69 33 89 70 16 90 71 33 91 70 15 92 69 33 93 70 16 94 71 34 95 72 17 96 73 34 97 72 16 98 71 34 99 72 17 100 73 35 101 74 0 102 20 35 103 74 17 104 73 35 105 74 0 106 20 18 107 42 18 108 42 19 109 41 36 110 75 19 111 41 20 112 44 36 113 75 20 114 44 21 115 46 36 116 75 21 117 46 22 118 48 36 119 75 22 120 48 23 121 50 36 122 75 23 123 50 24 124 52 36 125 75 24 126 52 25 127 54 36 128 75 25 129 54 26 130 56 36 131 75 26 132 56 27 133 58 36 134 75 27 135 58 28 136 60 36 137 75 28 138 60 29 139 62 36 140 75 29 141 62 30 142 64 36 143 75 30 144 64 31 145 66 36 146 75 31 147 66 32 148 68 36 149 75 32 150 68 33 151 70 36 152 75 33 153 70 34 154 72 36 155 75 34 156 72 35 157 74 36 158 75 35 159 74 18 160 42 36 161 75 40 162 80 37 163 78 39 164 79 37 165 78 40 166 80 38 167 81 37 168 4 38 169 5 42 170 6 37 171 4 42 172 6 41 173 7 40 174 87 44 175 88 38 176 86 38 177 86 44 178 88 42 179 89 40 180 0 39 181 1 43 182 2 40 183 0 43 184 2 44 185 3 37 186 17 43 187 19 39 188 16 43 189 19 37 190 17 41 191 18 0 192 160 96 193 161 1 194 98 1 195 98 96 196 161 95 197 23 1 198 29 45 199 22 2 200 28 45 201 22 1 202 29 95 203 96 45 204 22 3 205 99 2 206 28 3 207 99 45 208 22 46 209 97 3 210 30 47 211 24 4 212 25 47 213 24 3 214 30 46 215 101 4 216 25 47 217 24 5 218 103 5 219 103 47 220 24 97 221 102 5 222 103 97 223 102 6 224 167 6 225 167 97 226 102 98 227 166 6 228 40 99 229 31 7 230 32 99 231 31 6 232 40 98 233 104 99 234 31 8 235 106 7 236 32 8 237 106 99 238 31 100 239 105 8 240 107 101 241 26 9 242 27 101 243 26 8 244 107 100 245 108 9 246 27 101 247 26 10 248 179 10 249 179 101 250 26 48 251 178 48 252 109 102 253 33 11 254 34 48 255 109 11 256 34 10 257 35 103 258 110 11 259 34 102 260 33 11 261 34 103 262 110 12 263 111 12 264 94 104 265 36 13 266 37 104 267 36 12 268 94 103 269 95 13 270 37 105 271 112 14 272 113 105 273 112 13 274 37 104 275 36 14 276 113 105 277 112 15 278 115 15 279 115 105 280 112 106 281 114 16 282 39 106 283 117 107 284 38 106 285 117 16 286 39 15 287 116 107 288 205 49 289 100 17 290 118 107 291 205 17 292 118 16 293 204 17 294 198 96 295 161 0 296 160 96 297 161 17 298 198 49 299 199 53 300 77 51 301 120 50 302 76 51 303 120 53 304 77 52 305 119 54 306 122 51 307 120 55 308 121 51 309 120 52 310 119 55 311 121 57 312 123 56 313 124 54 314 122 54 315 122 55 316 121 57 317 123 58 318 126 57 319 123 59 320 125 57 321 123 58 322 126 56 323 124 60 324 128 59 325 125 61 326 127 59 327 125 60 328 128 58 329 126 63 330 129 60 331 128 61 332 127 60 333 128 63 334 129 62 335 130 63 336 129 64 337 132 62 338 130 64 339 132 63 340 129 65 341 131 66 342 134 65 343 131 67 344 133 65 345 131 66 346 134 64 347 132 69 348 135 68 349 136 66 350 134 69 351 135 66 352 134 67 353 133 70 354 138 69 355 135 71 356 137 69 357 135 70 358 138 68 359 136 70 360 138 73 361 139 72 362 140 73 363 139 70 364 138 71 365 137 73 366 139 74 367 142 72 368 140 74 369 142 73 370 139 75 371 141 74 372 142 75 373 141 77 374 143 74 375 142 77 376 143 76 377 144 78 378 146 77 379 143 79 380 145 77 381 143 78 382 146 76 383 144 81 384 147 80 385 148 78 386 146 81 387 147 78 388 146 79 389 145 82 390 150 81 391 147 83 392 149 81 393 147 82 394 150 80 395 148 84 396 152 83 397 149 85 398 151 83 399 149 84 400 152 82 401 150 85 402 151 50 403 76 84 404 152 50 405 76 85 406 151 53 407 77 53 408 77 86 409 153 52 410 119 52 411 119 86 412 153 55 413 121 55 414 121 86 415 153 57 416 123 57 417 123 86 418 153 59 419 125 59 420 125 86 421 153 61 422 127 61 423 127 86 424 153 63 425 129 63 426 129 86 427 153 65 428 131 65 429 131 86 430 153 67 431 133 67 432 133 86 433 153 69 434 135 69 435 135 86 436 153 71 437 137 71 438 137 86 439 153 73 440 139 73 441 139 86 442 153 75 443 141 75 444 141 86 445 153 77 446 143 77 447 143 86 448 153 79 449 145 79 450 145 86 451 153 81 452 147 81 453 147 86 454 153 83 455 149 83 456 149 86 457 153 85 458 151 85 459 151 86 460 153 53 461 77 87 462 154 90 463 155 89 464 156 87 465 154 89 466 156 88 467 157 91 468 14 87 469 12 92 470 13 87 471 12 91 472 14 90 473 15 93 474 92 90 475 90 91 476 91 90 477 90 93 478 92 89 479 93 94 480 10 89 481 8 93 482 9 89 483 8 94 484 10 88 485 11 94 486 83 87 487 85 88 488 82 87 489 85 94 490 83 92 491 84 95 492 23 96 493 161 51 494 201 96 495 161 50 496 200 51 497 201 45 498 158 51 499 162 54 500 163 51 501 162 45 502 158 95 503 159 46 504 164 45 505 158 56 506 165 45 507 158 54 508 163 56 509 165 47 510 24 56 511 168 58 512 169 56 513 168 47 514 24 46 515 101 97 516 102 47 517 24 60 518 170 47 519 24 58 520 169 60 521 170 98 522 166 97 523 102 62 524 171 97 525 102 60 526 170 62 527 171 62 528 174 99 529 172 98 530 173 99 531 172 62 532 174 64 533 175 100 534 176 99 535 172 66 536 177 99 537 172 64 538 175 66 539 177 101 540 26 66 541 180 68 542 181 66 543 180 101 544 26 100 545 108 48 546 178 101 547 26 70 548 203 101 549 26 68 550 181 70 551 203 48 552 183 72 553 185 102 554 182 72 555 185 48 556 183 70 557 184 72 558 185 103 559 186 102 560 182 103 561 186 72 562 185 74 563 187 104 564 36 74 565 188 76 566 189 74 567 188 104 568 36 103 569 95 105 570 112 76 571 189 78 572 190 76 573 189 105 574 112 104 575 36 106 576 114 105 577 112 80 578 191 105 579 112 78 580 190 80 581 191 106 582 193 82 583 195 107 584 192 82 585 195 106 586 193 80 587 194 107 588 197 84 589 207 49 590 196 84 591 207 107 592 197 82 593 206 96 594 161 84 595 202 50 596 200 84 597 202 96 598 161 49 599 199</p></triangles>
      </mesh>
    </geometry>
  </library_geometries>
  <library_visual_scenes>
    <visual_scene id="SmallBallCapsule" name="SmallBallCapsule">
      <node name="SmallBallCapsule" id="SmallBallCapsule" sid="SmallBallCapsule"><matrix sid="matrix">-1.000000 0.000000 0.000000 -41.899681 0.000000 1.000000 0.000000 3.819503 0.000000 -0.000000 0.647418 -139.118347 0.000000 0.000000 0.000000 1.000000</matrix><instance_geometry url="#SmallBallCapsule-lib"/><extra><technique profile="FCOLLADA"><visibility>1.000000</visibility></technique></extra></node>
      <extra><technique profile="MAX3D"><frame_rate>30.000000</frame_rate></technique><technique profile="FCOLLADA"><start_time>0.000000</start_time><end_time>0.833333</end_time></technique></extra>
    </visual_scene>
  </library_visual_scenes>
  <scene>
    <instance_visual_scene url="#SmallBallCapsule"></instance_visual_scene>
  </scene>
</COLLADA>
