<?xml version="1.0" encoding="utf-8"?>
<COLLADA xmlns="http://www.collada.org/2005/11/COLLADASchema" version="1.4.1">
  <asset><contributor><author></author><authoring_tool></authoring_tool><comments></comments></contributor><created></created><keywords></keywords><modified></modified><revision></revision><subject></subject><title></title><unit meter="1.000000" name="centimeter"></unit><up_axis>Y_UP</up_axis></asset>
  <library_geometries>
    <geometry id="BombBrick-lib" name="BombBrickMesh">
      <mesh>
        <source id="BombBrick-POSITION">
          <float_array id="BombBrick-POSITION-array" count="228">
-0.739450 -1.000000 0.000000
0.708901 -1.000000 0.000000
-1.000000 1.000000 0.291099
1.000000 0.739450 0.000000
-1.000000 -1.000000 1.412068
1.000000 -1.000000 1.385465
-1.000000 1.000000 1.426908
0.678902 0.678902 2.000000
-0.518356 -0.518356 2.000000
0.518356 -0.518356 2.000000
0.518356 0.518356 2.000000
-0.518356 0.518356 2.000000
-0.518356 -0.518356 2.468925
0.518356 -0.518356 2.468925
0.518356 0.518356 2.468925
-0.518356 0.518356 2.468925
-0.070660 -0.197603 2.468925
0.301252 -0.079523 2.468925
0.178635 0.272937 2.468925
-0.193277 0.154857 2.468925
-0.064603 -0.231002 2.654974
0.280367 -0.053511 2.601322
0.125749 0.284393 2.725012
-0.219221 0.106903 2.778664
-0.016999 -0.318205 2.755192
0.290547 -0.086697 2.683044
0.154312 0.110639 2.915071
-0.109286 -0.145884 3.049596
0.097984 -0.413540 2.939418
0.405529 -0.182032 2.867270
0.177972 -0.354036 3.215550
0.441570 -0.097513 3.081024
0.127864 0.247294 3.123832
-0.135734 -0.009229 3.258357
0.151524 -0.217381 3.424311
0.415123 0.039143 3.289786
-0.583453 -1.000000 1.791982
-0.712974 -0.712974 1.931462
-1.000000 -0.581821 1.840966
1.000000 -0.743438 1.691425
0.836521 -0.836521 1.766164
0.740550 -1.000000 1.669932
-1.000000 -1.000000 0.260550
-1.000000 -0.739450 0.000000
0.739450 1.000000 0.000000
1.000000 1.000000 0.260550
1.000000 -0.708901 0.000000
1.000000 -1.000000 0.291099
-0.708901 1.000000 0.000000
-1.000000 0.708901 0.000000
0.103497 -1.121016 1.140853
-0.247788 -1.121016 0.790514
0.138164 -1.121016 0.471601
0.492762 -1.121016 0.771887
1.105414 -0.452703 0.949545
1.105414 -0.171734 1.222216
1.105414 0.073243 0.530631
1.105414 0.309066 0.827614
-1.000000 0.546044 1.869518
-0.683692 0.683692 1.959154
-0.546700 1.000000 1.907979
1.000000 0.552848 1.920858
1.000000 1.000000 1.545898
0.546700 1.000000 1.973031
-0.020281 1.110672 1.356477
0.388692 1.110672 0.992900
-0.020311 1.110672 0.622909
-0.401197 1.110672 0.942257
-1.104028 0.008064 1.309643
-1.104028 0.423701 0.954158
-1.104028 0.002823 0.608903
-1.104028 -0.438162 0.845255
-0.392761 -0.032425 -0.055877
0.054328 0.184811 -0.055877
0.499684 -0.072315 -0.055877
0.042260 -0.283584 -0.055877
</float_array>
          <technique_common>
            <accessor source="#BombBrick-POSITION-array" count="76" stride="3">
              <param name="X" type="float"/>
              <param name="Y" type="float"/>
              <param name="Z" type="float"/>
            </accessor>
          </technique_common>
        </source>
        <source id="BombBrick-Normal0">
          <float_array id="BombBrick-Normal0-array" count="1332">
-0.022989 -0.055773 -0.998179
-0.039155 -0.999233 0.022816
-0.997868 -0.094985 0.537135
0.537135 0.838131 -0.094985
0.838131 -0.116677 -0.991484
-0.094985 0.537135 0.838131
-0.094985 0.537135 0.838131
0.838131 -0.116677 -0.991484
-0.081615 -0.996654 -0.004378
-0.991851 0.056224 0.991831
-0.062904 0.995445 -0.095248
0.988563 -0.137281 0.062433
0.992411 -0.058463 0.088766
0.005839 0.121709 0.990601
-0.992419 0.107584 -0.059423
0.088789 0.006147 -0.990225
0.062404 -0.122505 -0.258727
0.202136 -0.302023 0.931624
-0.292641 0.926154 -0.135661
0.954122 0.164354 0.010543
0.209419 0.034720 0.977209
-0.292641 0.926154 0.202136
0.931624 -0.161924 0.055035
-0.155242 0.059049 0.986110
-0.292641 0.926154 0.202136
-0.155242 0.059049 0.986110
0.034720 0.977209 0.164354
-0.266923 0.954122 -0.155242
0.986345 -0.161924 0.055035
-0.122505 -0.258727 0.958151
0.986110 0.000000 -1.000000
0.986345 -0.161924 0.055035
-0.266923 0.954122 -0.155242
-1.000000 0.000000 0.000000
1.000000 0.000000 0.000000
0.000000 -1.000000 0.000000
1.000000 0.000000 0.000000
-1.000000 0.000000 0.000000
0.000000 1.000000 0.000000
0.000000 0.000000 1.000000
0.000000 0.000000 1.000000
0.000000 1.000000 0.000000
0.000000 0.000000 1.000000
0.000000 1.000000 0.000000
1.000000 0.000000 0.000000
0.000000 0.000000 -1.000000
0.000000 0.000000 0.000000
0.000000 -1.000000 0.000000
0.000000 0.000000 -1.000000
0.000000 -1.000000 0.000000
-1.000000 0.000000 0.000000
1.000000 0.000000 0.000000
0.000000 0.000000 1.000000
0.000000 0.000000 1.000000
1.000000 0.000000 0.000000
0.000000 0.000000 1.000000
0.000000 1.000000 0.000000
0.000000 0.000000 1.000000
0.000000 1.000000 0.000000
0.000000 1.000000 0.000000
0.000000 0.000000 1.000000
0.000000 1.000000 0.000000
1.000000 0.000000 0.000000
0.000000 1.000000 0.000000
1.000000 0.380933 -0.924595
1.000000 0.000000 0.000000
0.000000 1.000000 0.000000
1.000000 0.000000 0.000000
0.000000 0.000000 1.000000
-0.924595 -0.003712 0.380933
0.917802 0.366244 0.153313
0.380933 -0.924595 -0.003712
0.917802 0.366244 0.153313
-0.924595 -0.003712 0.380933
-0.003712 0.927059 0.346736
0.142603 -0.380742 0.924658
0.924658 0.006601 -0.380742
0.363477 0.151792 0.927059
0.924658 0.006601 -0.380742
0.142603 -0.380742 0.924658
-0.380742 0.924658 0.006601
-0.916794 -0.396316 -0.049220
-0.095720 0.343169 -0.729482
0.006601 -0.929523 -0.356125
-0.095720 0.343169 -0.729482
-0.916794 -0.396316 -0.049220
-0.389417 -0.057346 -0.929523
-0.713419 -0.597590 0.343169
0.798585 0.584304 -0.144400
0.362409 -0.715968 -0.596699
0.798585 0.584304 -0.144400
-0.713419 -0.597590 0.343169
-0.591685 0.917802 0.366244
0.151792 -0.261100 0.668175
0.668175 0.696685 -0.261100
0.513695 0.041490 0.919154
0.668175 0.696685 -0.261100
0.151792 -0.261100 0.668175
-0.261100 0.668175 0.696685
-0.597592 0.206233 -0.919275
0.696685 -0.916794 -0.396316
-0.851266 -0.522151 0.052014
0.696685 -0.916794 -0.396316
-0.597592 0.206233 -0.919275
-0.057346 0.362409 -0.715968
-0.597590 0.856969 0.513695
0.385112 -0.699285 -0.602237
-0.699285 -0.602237 0.365949
0.385112 -0.699285 -0.602237
-0.597590 0.856969 0.513695
0.798585 0.584304 -0.144400
0.206233 -0.851266 -0.522151
-0.747358 0.063060 0.714555
0.652964 -0.260709 -0.774824
-0.747358 0.063060 0.714555
0.206233 -0.851266 -0.522151
-0.716498 -0.654362 0.241744
0.652964 -0.260709 0.798585
0.257237 0.714327 -0.651296
0.661422 -0.747358 0.063060
0.257237 0.714327 -0.651296
0.652964 -0.260709 0.798585
-0.144400 0.674190 0.648223
-0.732043 0.523787 -0.435615
-0.774824 -0.597592 0.206233
0.340786 -0.732043 0.523787
-0.774824 -0.597592 0.206233
-0.654362 0.241744 -0.672745
0.340786 -0.732043 0.523787
-0.435615 -0.774824 -0.597592
-0.672745 -0.656719 0.340786
0.523787 -0.435615 -0.732043
-0.654991 0.343488 -0.673055
0.523787 -0.435615 -0.732043
-0.672745 -0.656719 0.340786
0.714555 -0.650569 0.257237
-0.523787 0.435615 0.732043
0.343489 0.714327 -0.651296
0.343489 0.714327 -0.651296
-0.523787 0.435615 0.732043
0.435615 0.674190 0.648223
0.654991 -0.343488 0.673055
-0.343488 -0.521458 -0.591465
0.798585 0.584304 -0.144400
0.798585 0.584304 -0.144400
-0.343488 -0.521458 -0.591465
-0.521458 -0.591465 0.615021
-0.591465 0.615021 -0.521458
0.615021 0.579023 -0.628996
0.579023 -0.628996 0.518744
-0.628996 0.518744 0.579023
0.518744 -0.577350 -0.577350
-0.577350 -0.577350 -0.577350
-0.577350 0.577350 0.577350
-0.577350 -0.577350 0.577350
-0.577350 -0.577350 0.577350
-0.577350 -0.577350 0.577350
-0.577350 0.577350 0.577350
0.577350 0.577350 -0.577350
-0.577350 0.577350 -0.577350
-0.577350 0.577350 -0.577350
0.577350 -0.577350 -0.577350
-0.577350 0.079350 -0.983774
0.154801 -0.984666 -0.080430
-0.993211 -0.008001 0.008624
0.136640 -0.055942 -0.990765
-0.123334 0.154801 -0.984666
-0.993211 -0.008001 0.076677
-0.123334 0.154801 -0.984666
0.142510 -0.987018 0.074066
-0.993211 -0.008001 0.076677
-0.990765 0.123509 -0.114326
0.008062 -0.994874 0.100803
0.008062 -0.994874 0.100803
0.008062 -0.994874 0.100803
-0.990765 0.123509 -0.114326
0.056224 -0.081615 -0.996654
-0.123334 -0.081615 -0.996654
-0.989107 -0.130115 0.079350
-0.989107 -0.130115 0.008624
-0.989107 -0.130115 0.079350
-0.123334 -0.081615 -0.996654
-0.116677 -0.991484 -0.057846
-0.996654 -0.004378 0.008624
-0.160911 0.008624 -0.992328
0.008062 -0.994874 0.100803
-0.160911 0.008624 -0.992328
-0.996654 -0.004378 0.008624
-0.123334 0.116050 -0.993211
-0.008001 0.142510 -0.987018
0.992365 0.112814 -0.049840
0.076677 -0.987649 0.136640
0.076677 -0.987649 0.136640
-0.994874 0.100803 0.116050
-0.008001 0.142510 -0.987018
0.001494 0.991507 0.063941
0.075717 0.001494 0.995338
0.095657 0.053551 0.997128
0.075717 0.001494 0.995338
0.001494 0.991507 0.063941
0.992365 0.112814 -0.049840
-0.096204 0.991504 -0.057832
0.995338 0.006790 -0.096204
-0.095248 0.004119 0.991831
-0.062904 0.988471 -0.080163
0.988563 -0.137281 0.062433
-0.095248 0.004119 0.995730
0.090572 0.991504 -0.057832
0.991507 0.063941 -0.113249
0.006790 -0.096204 0.995730
0.090572 0.995445 -0.095248
0.995338 0.006790 -0.096204
0.075717 0.001494 -0.568546
-0.568546 0.513255 0.642903
0.513255 0.642903 0.536800
0.642903 -0.568546 0.513255
0.642903 -0.568546 0.513255
0.513255 0.642903 0.536800
0.706112 0.536800 0.461792
0.536800 0.461792 0.706112
0.461792 0.706112 0.993338
0.107685 0.988471 -0.080163
0.995730 -0.017832 0.090572
0.041024 0.107685 0.995730
0.090572 0.997128 0.075717
0.993973 0.095657 0.053551
-0.061438 -0.092033 0.995753
-0.000925 0.996183 -0.087282
-0.061438 -0.092033 0.995753
0.993973 0.095657 0.053551
0.991569 -0.116817 -0.113726
-0.070622 0.988939 0.130435
0.990267 0.127375 -0.007840
0.991611 -0.061438 -0.133900
0.991611 -0.061438 -0.133900
0.061111 -0.092033 0.995753
-0.070622 0.988939 0.130435
0.094410 0.056100 0.990267
0.121709 0.990601 0.062415
0.996035 0.005839 -0.007840
0.094410 0.055342 0.992363
0.996035 0.005839 0.108176
-0.058463 0.055342 0.992363
0.996035 0.005839 0.108176
0.094410 0.055342 0.992363
-0.000925 0.996183 -0.087282
-0.000925 0.996183 -0.087282
0.996183 -0.087282 -0.007840
0.094410 0.088766 0.996035
0.996183 -0.087282 -0.007840
-0.000925 0.996183 -0.087282
-0.056083 0.991569 -0.116817
0.995753 0.002267 -0.133900
0.061111 -0.070622 0.988939
-0.007840 0.995502 0.094410
-0.118492 -0.992151 -0.106335
-0.995958 -0.089585 -0.006456
0.995753 0.002267 -0.991753
0.995753 0.002267 -0.991753
-0.995958 -0.089585 -0.006456
0.004045 -0.084133 -0.992151
-0.065790 -0.990583 -0.122906
-0.995958 -0.089585 -0.006456
-0.064742 0.121669 -0.989763
-0.065790 -0.990583 -0.122906
-0.064742 0.121669 -0.989763
0.129637 -0.995561 -0.001855
-0.989763 0.059699 0.129637
0.006147 -0.995561 -0.001855
-0.992411 0.053228 -0.110850
0.006147 -0.995561 -0.001855
-0.989763 0.059699 0.129637
0.124741 0.062404 -0.996031
0.004045 -0.084133 -0.996031
0.006147 -0.992419 0.107584
-0.992411 0.053228 -0.110850
-0.048852 -0.118492 -0.996446
-0.996031 0.088789 0.006147
0.004045 -0.084133 -0.995958
-0.996031 0.088789 0.006147
-0.048852 -0.118492 -0.996446
-0.084133 -0.995561 -0.001855
-0.006456 -0.285857 -0.018030
-0.006456 -0.990583 -0.122906
-0.001855 0.094098 -0.995958
-0.006456 -0.990583 -0.122906
-0.990457 -0.064742 0.121669
-0.001855 0.094098 -0.995958
0.985267 0.068892 -0.458461
0.068892 -0.458461 0.886040
-0.285857 -0.018030 0.958103
0.985267 0.068892 -0.458461
-0.285857 -0.018030 0.958103
-0.258727 0.958151 -0.161924
-0.302023 0.931624 -0.122505
0.958151 0.202136 -0.302023
0.291058 -0.139627 0.946462
-0.139627 0.946462 0.164354
-0.042520 0.121891 0.991632
0.055035 0.985267 0.164354
-0.042520 0.121891 0.991632
-0.139627 0.946462 0.164354
0.986345 -0.042520 0.121891
0.020645 0.053481 -0.998356
0.034758 -0.999395 -0.020054
0.986345 -0.020054 0.052897
0.986345 -0.020054 0.052897
0.034758 -0.999395 -0.020054
-0.998399 0.001065 0.034758
-0.043689 0.000062 -0.999045
0.031621 -0.998321 -0.051121
-0.998184 -0.048540 0.031621
-0.043689 0.000062 -0.999045
0.034758 -0.999395 0.052404
-0.998619 0.000234 -0.039155
-0.043689 0.000062 -0.999045
-0.998619 0.001065 0.034758
0.020645 0.053481 -0.998356
-0.998619 0.001065 0.034758
-0.043689 0.000062 -0.999045
0.034204 -0.998101 0.052404
0.034204 -0.998101 0.056634
-0.997693 0.052404 -0.003618
0.052404 -0.003618 -0.998619
0.034204 -0.998101 0.056634
0.052404 -0.003618 -0.998619
-0.037433 -0.997693 0.022816
-0.997868 0.000234 -0.039155
-0.051121 -0.031876 -0.998184
0.000062 -0.999045 0.000234
-0.999233 -0.022989 -0.055773
0.000000 0.000000 0.000000
0.000000 0.000000 0.000000
0.000000 0.000000 0.000000
-0.999233 -0.022989 -0.055773
0.000000 0.000000 0.000000
0.000000 0.000000 0.000000
0.000000 0.000000 0.000000
0.000000 0.000000 0.000000
0.000000 0.000000 0.000000
0.000000 0.000000 0.000000
0.000000 0.000000 0.000000
0.000000 0.000000 0.000000
0.000000 0.000000 0.000000
0.000000 0.000000 0.000000
0.000000 0.000000 0.000000
0.000000 0.000000 0.000000
0.000000 0.000000 0.000000
0.000000 0.000000 0.000000
0.000000 0.000000 0.000000
0.000000 0.000000 0.000000
0.000000 0.000000 0.000000
0.000000 0.000000 0.000000
0.000000 0.000000 0.000000
0.000000 0.000000 0.000000
0.000000 0.000000 0.000000
0.000000 0.000000 0.000000
0.000000 0.000000 0.000000
0.000000 0.000000 0.000000
0.000000 0.000000 0.000000
0.000000 0.000000 0.000000
0.000000 0.000000 0.000000
0.000000 0.000000 0.000000
0.000000 0.000000 0.000000
0.000000 0.000000 0.000000
0.000000 0.000000 0.000000
0.000000 0.000000 0.000000
0.000000 0.000000 0.000000
0.000000 0.000000 0.000000
0.000000 0.000000 0.000000
0.000000 0.000000 0.000000
0.000000 0.000000 0.000000
0.000000 0.000000 0.000000
0.000000 0.000000 0.000000
0.000000 0.000000 0.000000
0.000000 0.000000 0.000000
0.000000 0.000000 0.000000
0.000000 0.000000 0.000000
0.000000 0.000000 0.000000
0.000000 0.000000 0.000000
0.000000 0.000000 0.000000
0.000000 0.000000 0.000000
0.000000 0.000000 0.000000
0.000000 0.000000 0.000000
0.000000 0.000000 0.000000
0.000000 0.000000 0.000000
0.000000 0.000000 0.000000
0.000000 0.000000 0.000000
0.000000 0.000000 0.000000
0.000000 0.000000 0.000000
0.000000 0.000000 0.000000
0.000000 0.000000 0.000000
0.000000 0.000000 0.000000
0.000000 0.000000 0.000000
0.000000 0.000000 0.000000
0.000000 0.000000 0.000000
0.000000 0.000000 0.000000
0.000000 0.000000 0.000000
0.000000 0.000000 0.000000
0.000000 0.000000 0.000000
0.000000 0.000000 0.000000
0.000000 0.000000 0.000000
0.000000 0.000000 0.000000
0.000000 0.000000 0.000000
0.000000 0.000000 0.000000
0.000000 0.000000 0.000000
0.000000 0.000000 0.000000
0.000000 0.000000 0.000000
0.000000 0.000000 0.000000
0.000000 0.000000 0.000000
0.000000 0.000000 0.000000
0.000000 0.000000 0.000000
0.000000 0.000000 0.000000
0.000000 0.000000 0.000000
0.000000 0.000000 0.000000
0.000000 0.000000 0.000000
0.000000 0.000000 0.000000
0.000000 0.000000 0.000000
0.000000 0.000000 0.000000
0.000000 0.000000 0.000000
0.000000 0.000000 0.000000
0.000000 0.000000 0.000000
0.000000 0.000000 0.000000
0.000000 0.000000 0.000000
0.000000 0.000000 0.000000
0.000000 0.000000 0.000000
0.000000 0.000000 0.000000
0.000000 0.000000 0.000000
0.000000 0.000000 0.000000
0.000000 0.000000 0.000000
0.000000 0.000000 0.000000
0.000000 0.000000 0.000000
0.000000 0.000000 0.000000
0.000000 0.000000 0.000000
0.000000 0.000000 0.000000
0.000000 0.000000 0.000000
0.000000 0.000000 0.000000
0.000000 0.000000 0.000000
0.000000 0.000000 0.000000
0.000000 0.000000 0.000000
0.000000 0.000000 0.000000
0.000000 0.000000 0.000000
0.000000 0.000000 0.000000
0.000000 0.000000 0.000000
</float_array>
          <technique_common>
            <accessor source="#BombBrick-Normal0-array" count="444" stride="3">
              <param name="X" type="float"/>
              <param name="Y" type="float"/>
              <param name="Z" type="float"/>
            </accessor>
          </technique_common>
        </source>
        <source id="BombBrick-UV0">
          <float_array id="BombBrick-UV0-array" count="372">
0.289496 0.354009
0.160295 0.472418
0.050113 0.354009
0.284447 0.684569
0.295711 0.295711
0.030030 0.316895
0.084584 0.262341
0.262341 0.262341
0.002000 0.736979
0.127084 0.825106
0.002000 0.928464
0.286171 0.693653
0.354009 0.386880
0.444832 0.496147
0.354009 0.568486
0.685904 0.381810
0.354010 0.045247
0.455476 0.166804
0.354010 0.258592
0.637657 0.002000
0.354010 0.714724
0.449643 0.824754
0.354010 0.903204
0.642660 0.666418
0.858879 0.338572
0.858879 0.509698
0.772391 0.338572
0.772391 0.509698
0.695058 0.173126
0.695058 0.002000
0.767495 0.037836
0.748004 0.099226
0.866184 0.002000
0.825674 0.058076
0.866184 0.173126
0.806183 0.119466
0.932143 0.491544
0.934120 0.426927
0.914732 0.507817
0.909230 0.572229
0.833430 0.844503
0.163010 0.248782
0.102528 0.248782
0.995664 0.338572
0.833430 0.912010
0.100563 0.204838
0.158547 0.226063
0.781469 0.835419
0.809398 0.908219
0.799659 0.845603
0.782549 0.770761
0.845860 0.762724
0.699726 0.846627
0.768982 0.854464
0.782368 0.560707
0.919760 0.417843
0.823546 0.518782
0.867964 0.379976
0.932598 0.381642
0.847014 0.561180
0.867964 0.568704
0.873465 0.504292
0.975517 0.428194
0.973540 0.492811
0.057056 0.057056
0.334577 0.742059
0.084584 0.084584
0.685897 0.709654
0.875058 0.752482
0.781973 0.753640
0.781469 0.696814
0.826299 0.666418
0.290690 0.056235
0.685904 0.595110
0.262341 0.084584
0.250229 0.822009
0.879779 0.237179
0.916147 0.182210
0.943781 0.200992
0.943324 0.236080
0.191264 0.772075
0.592663 0.806682
0.045064 0.684569
0.868167 0.268933
0.837756 0.321606
0.807345 0.268933
0.158300 0.549835
0.685974 0.050317
0.571245 0.475913
0.854944 0.762724
0.915767 0.762724
0.885356 0.815397
0.332559 0.636456
0.642666 0.338572
0.334577 0.924040
0.694981 0.939150
0.762934 0.939150
0.728958 0.998000
0.586583 0.158398
0.232195 0.513930
0.519485 0.767461
0.918119 0.725267
0.884142 0.666418
0.952096 0.666418
0.291434 0.971343
0.071267 0.991639
0.185499 0.883364
0.045326 0.693653
0.532111 0.426629
0.402317 0.338572
0.491458 0.541396
0.396585 0.619260
0.344925 0.079836
0.685897 0.900741
0.344925 0.273223
0.523363 0.105392
0.100563 0.100563
0.205528 0.101911
0.199481 0.160183
0.154620 0.195754
0.273503 0.344925
0.046486 0.344925
0.611700 0.657333
0.685974 0.238841
0.707237 0.213261
0.756341 0.182210
0.798260 0.269279
0.695058 0.269097
0.610734 0.318691
0.429249 0.329488
0.523358 0.227151
0.397256 0.002000
0.616503 0.971914
0.429341 0.976652
0.518615 0.883744
0.402316 0.666418
0.332559 0.397073
0.084692 0.507337
0.002000 0.641505
0.002000 0.402122
0.002000 0.300934
0.002000 0.078670
0.079724 0.002000
0.267201 0.002000
0.870035 0.491636
0.867964 0.426927
0.911363 0.443150
0.885904 0.491681
0.923059 0.495208
0.709559 0.518782
0.765901 0.544086
0.757883 0.576224
0.694988 0.571738
0.764628 0.598505
0.715946 0.633195
0.766642 0.634798
0.995664 0.402817
0.942160 0.407298
0.951428 0.347708
0.794564 0.910067
0.781469 0.854244
0.807345 0.248526
0.807743 0.182210
0.870695 0.193532
0.870296 0.259848
0.822386 0.822980
0.764236 0.896403
0.694981 0.888566
0.768120 0.923624
0.698724 0.930066
0.868441 0.338572
0.933076 0.340238
0.846122 0.602586
0.781476 0.602113
0.952672 0.002000
0.952672 0.173126
0.875268 0.173126
0.875268 0.002000
0.772384 0.666418
0.772384 0.837543
0.694981 0.837543
0.694981 0.666418
0.694988 0.509698
0.694988 0.338572
0.781476 0.509698
0.781476 0.338572
</float_array>
          <technique_common>
            <accessor source="#BombBrick-UV0-array" count="186" stride="2">
              <param name="S" type="float"/>
              <param name="T" type="float"/>
            </accessor>
          </technique_common>
        </source>
        <vertices id="BombBrick-VERTEX">
          <input semantic="POSITION" source="#BombBrick-POSITION"/>
        </vertices>
        <triangles count="148"><input semantic="VERTEX" offset="0" source="#BombBrick-VERTEX"/><input semantic="NORMAL" offset="1" source="#BombBrick-Normal0"/><input semantic="TEXCOORD" offset="2" set="0" source="#BombBrick-UV0"/><p> 0 0 0 75 1 1 1 2 2 35 3 162 32 4 163 34 5 161 34 6 161 32 7 163 33 8 164 42 9 8 51 10 9 4 11 10 47 12 12 54 13 13 5 14 14 45 15 16 65 16 17 62 17 18 2 18 20 69 19 21 6 20 22 37 21 4 40 22 5 9 23 6 37 24 4 9 25 6 8 26 7 9 27 6 7 28 64 10 29 66 40 30 5 7 31 64 9 32 6 11 33 74 7 34 64 59 35 72 7 36 64 11 37 74 10 38 66 59 39 72 37 40 4 8 41 7 59 42 72 8 43 7 11 44 74 13 45 184 12 46 185 8 47 24 13 48 184 8 49 24 9 50 25 14 51 176 13 52 177 9 53 174 14 54 176 9 55 174 10 56 175 15 57 182 14 58 183 10 59 26 15 60 182 10 61 26 11 62 27 12 63 180 15 64 181 11 65 178 12 66 180 11 67 178 8 68 179 13 69 29 16 70 31 12 71 28 16 72 31 13 73 29 17 74 30 14 75 32 17 76 30 13 77 29 17 78 30 14 79 32 18 80 33 15 81 34 18 82 33 14 83 32 18 84 33 15 85 34 19 86 35 12 87 28 19 88 35 15 89 34 19 90 35 12 91 28 16 92 31 21 93 48 16 94 40 17 95 44 16 96 40 21 97 48 20 98 49 21 99 46 18 100 42 22 101 45 18 102 42 21 103 46 17 104 41 22 105 158 19 106 156 23 107 157 19 108 156 22 109 158 18 110 43 20 111 151 19 112 149 16 113 150 19 114 149 20 115 151 23 116 152 24 117 160 21 118 48 25 119 159 21 120 48 24 121 160 20 122 49 21 123 144 22 124 145 25 125 147 22 126 145 26 127 146 25 128 147 27 129 51 26 130 165 23 131 50 22 132 47 23 133 50 26 134 165 24 135 153 27 136 154 20 137 151 20 138 151 27 139 154 23 140 152 29 141 166 28 142 167 25 143 53 25 144 53 28 145 167 24 146 52 25 147 147 26 148 146 29 149 148 27 150 154 24 151 153 28 152 155 31 153 168 28 154 167 29 155 166 28 156 167 31 157 168 30 158 169 29 159 55 26 160 57 31 161 58 27 162 54 28 163 56 30 164 59 32 165 61 26 166 38 33 167 60 26 168 38 27 169 39 33 170 60 30 171 59 33 172 173 27 173 54 33 174 173 30 175 59 34 176 172 31 177 37 34 178 63 30 179 36 34 180 63 31 181 37 35 182 62 32 183 170 31 184 58 26 185 57 31 186 58 32 187 170 35 188 171 37 189 70 38 190 71 4 191 68 4 192 68 36 193 69 37 194 70 39 195 77 41 196 79 5 197 76 41 198 79 39 199 77 40 200 78 0 201 83 42 202 84 43 203 85 3 204 89 44 205 90 45 206 91 1 207 95 46 208 96 47 209 97 2 210 101 48 211 102 49 212 103 47 213 65 53 214 75 1 215 11 1 216 11 53 217 75 52 218 80 47 219 65 5 220 94 53 221 75 41 222 104 36 223 105 50 224 106 36 225 105 51 226 9 50 227 106 51 228 9 36 229 105 4 230 10 51 231 9 42 232 8 0 233 107 0 234 107 52 235 80 51 236 9 0 237 107 1 238 11 52 239 80 50 240 106 52 241 80 53 242 75 52 243 80 50 244 106 51 245 9 5 246 94 50 247 106 53 248 75 50 249 106 5 250 94 41 251 104 45 252 15 62 253 73 57 254 88 45 255 15 57 256 88 3 257 93 3 258 93 57 259 88 56 260 108 46 261 109 56 262 108 54 263 13 46 264 109 54 265 13 47 266 12 39 267 111 54 268 13 55 269 110 54 270 13 39 271 111 5 272 14 46 273 109 3 274 93 56 275 108 55 276 110 56 277 108 57 278 88 56 279 108 55 280 110 54 281 13 60 282 119 6 283 116 59 284 118 6 285 116 58 286 117 59 287 118 62 288 126 63 289 127 7 290 124 62 291 126 7 292 124 61 293 125 61 294 122 39 295 111 55 296 110 61 297 122 57 298 88 62 299 73 57 300 88 61 301 122 55 302 110 2 303 87 67 304 98 48 305 19 48 306 19 67 307 98 66 308 115 2 309 87 6 310 123 67 311 98 60 312 128 63 313 129 64 314 130 63 315 129 65 316 17 64 317 130 65 318 17 63 319 129 62 320 18 44 321 131 66 322 115 65 323 17 44 324 131 65 325 17 45 326 16 44 327 131 48 328 19 66 329 115 64 330 130 66 331 115 67 332 98 66 333 115 64 334 130 65 335 17 67 336 98 60 337 128 64 338 130 60 339 128 67 340 98 6 341 123 42 342 67 71 343 81 43 344 23 70 345 100 43 346 23 71 347 81 42 348 67 4 349 113 71 350 81 38 351 132 58 352 133 68 353 134 58 354 133 69 355 21 68 356 134 69 357 21 58 358 133 6 359 22 49 360 135 70 361 100 69 362 21 49 363 135 69 364 21 2 365 20 49 366 135 43 367 23 70 368 100 68 369 134 70 370 100 71 371 81 70 372 100 68 373 134 69 374 21 71 375 81 38 376 132 68 377 134 38 378 132 71 379 81 4 380 113 37 381 4 59 382 72 58 383 112 37 384 4 58 385 112 38 386 114 37 387 4 41 388 121 40 389 5 41 390 121 37 391 4 36 392 120 7 393 64 39 394 140 61 395 141 39 396 140 7 397 64 40 398 5 60 399 143 7 400 64 63 401 142 7 402 64 60 403 143 59 404 72 48 405 3 44 406 82 73 407 86 48 408 3 73 409 86 72 410 99 48 411 3 72 412 99 49 413 92 43 414 136 49 415 92 72 416 99 74 417 137 75 418 1 73 419 86 72 420 99 73 421 86 75 422 1 73 423 86 44 424 82 3 425 138 73 426 86 3 427 138 74 428 137 3 429 138 46 430 139 74 431 137 74 432 137 46 433 139 1 434 2 74 435 137 1 436 2 75 437 1 72 438 99 0 439 0 43 440 136 0 441 0 72 442 99 75 443 1</p></triangles>
      </mesh>
    </geometry>
  </library_geometries>
  <library_visual_scenes>
    <visual_scene id="BombBrick" name="BombBrick">
      <node name="BombBrick" id="BombBrick" sid="BombBrick"><matrix sid="matrix">1.066690 -0.382976 0.018045 -189.814880 -0.141997 -0.345068 1.070322 0.413851 -0.356136 -1.009495 -0.372705 -110.106918 0.000000 0.000000 0.000000 1.000000</matrix><instance_geometry url="#BombBrick-lib"></instance_geometry><extra><technique profile="FCOLLADA"><visibility>1.000000</visibility></technique></extra></node>
    </visual_scene>
  </library_visual_scenes>
  <scene>
    <instance_visual_scene url="#BombBrick"></instance_visual_scene>
  </scene>
</COLLADA>
